## Shape input card
imax 1 number of channels
jmax * number of background
kmax * number of nuisance parameters
----------------------------------------------------------------------------------------------------
bin         ww2l2v_13TeV_sr_0j_B4
observation 315
shapes  *           * shapes/histos_ww2l2v_13TeV_sr_0j_B4.root     histo_$PROCESS histo_$PROCESS_$SYSTEMATIC
shapes  data_obs           * shapes/histos_ww2l2v_13TeV_sr_0j_B4.root     histo_Data
bin                                                                             ww2l2v_13TeV_sr_0j_B4         ww2l2v_13TeV_sr_0j_B4         ww2l2v_13TeV_sr_0j_B4         ww2l2v_13TeV_sr_0j_B4         ww2l2v_13TeV_sr_0j_B4         ww2l2v_13TeV_sr_0j_B4         ww2l2v_13TeV_sr_0j_B4         ww2l2v_13TeV_sr_0j_B4         ww2l2v_13TeV_sr_0j_B4         ww2l2v_13TeV_sr_0j_B4         ww2l2v_13TeV_sr_0j_B4         ww2l2v_13TeV_sr_0j_B4         ww2l2v_13TeV_sr_0j_B4         ww2l2v_13TeV_sr_0j_B4         ww2l2v_13TeV_sr_0j_B4         ww2l2v_13TeV_sr_0j_B4         ww2l2v_13TeV_sr_0j_B4         ww2l2v_13TeV_sr_0j_B4         ww2l2v_13TeV_sr_0j_B4         ww2l2v_13TeV_sr_0j_B4         ww2l2v_13TeV_sr_0j_B4         ww2l2v_13TeV_sr_0j_B4         ww2l2v_13TeV_sr_0j_B4         
process                                                                         ggWW_B11                      ggWW_B6                       ggWW_B7                       ggWW_B4                       ggWW_B5                       ggWW_B3                       ggWW_B8                       ggWW_B9                       WW_B6                         WW_B4                         WW_B5                         WW_B3                         DY                            Fake_em                       WZ                            VVV                           top                           Fake_me                       Higgs                         ZZ                            ggWW_nonfid                   Vg                            WW_nonfid                     
process                                                                         -2                            -3                            -4                            -5                            -6                            -8                            -11                           -12                           -17                           -19                           -20                           -22                           2                             3                             4                             5                             6                             7                             8                             9                             10                            11                            12                            
rate                                                                            0.0003                        0.0692                        0.0049                        13.9941                       1.7304                        0.7856                        0.0018                        0.0002                        0.2624                        118.5766                      17.0460                       6.6734                        1.1513                        4.8529                        5.6534                        0.6275                        66.2505                       5.4659                        16.1875                       0.2623                        1.9535                        0.9223                        17.3296                       
----------------------------------------------------------------------------------------------------
lumi_13TeV_2016                                             lnN                 1.010                         1.010                         1.010                         1.010                         1.010                         1.010                         1.010                         1.010                         1.010                         1.010                         1.010                         1.010                         1.010                         -                             1.010                         1.010                         -                             -                             1.010                         1.010                         1.010                         1.010                         1.010                         
lumi_13TeV_correlated                                       lnN                 1.006                         1.006                         1.006                         1.006                         1.006                         1.006                         1.006                         1.006                         1.006                         1.006                         1.006                         1.006                         1.006                         -                             1.006                         1.006                         -                             -                             1.006                         1.006                         1.006                         1.006                         1.006                         
CMS_fake_syst_em                                            lnN                 -                             -                             -                             -                             -                             -                             -                             -                             -                             -                             -                             -                             -                             1.3                           -                             -                             -                             -                             -                             -                             -                             -                             -                             
CMS_fake_syst_me                                            lnN                 -                             -                             -                             -                             -                             -                             -                             -                             -                             -                             -                             -                             -                             -                             -                             -                             -                             1.3                           -                             -                             -                             -                             -                             
CMS_fake_e_2016                                             shape               -                             -                             -                             -                             -                             -                             -                             -                             -                             -                             -                             -                             -                             1.000                         -                             -                             -                             1.000                         -                             -                             -                             -                             -                             
CMS_fake_stat_e_2016                                        shape               -                             -                             -                             -                             -                             -                             -                             -                             -                             -                             -                             -                             -                             1.000                         -                             -                             -                             1.000                         -                             -                             -                             -                             -                             
CMS_fake_m_2016                                             shape               -                             -                             -                             -                             -                             -                             -                             -                             -                             -                             -                             -                             -                             1.000                         -                             -                             -                             1.000                         -                             -                             -                             -                             -                             
CMS_fake_stat_m_2016                                        shape               -                             -                             -                             -                             -                             -                             -                             -                             -                             -                             -                             -                             -                             1.000                         -                             -                             -                             1.000                         -                             -                             -                             -                             -                             
CMS_btag_lf                                                 shape               1.000                         1.000                         1.000                         1.000                         1.000                         1.000                         1.000                         1.000                         1.000                         1.000                         1.000                         1.000                         1.000                         -                             1.000                         1.000                         1.000                         -                             1.000                         1.000                         1.000                         1.000                         1.000                         
CMS_btag_hf                                                 shape               1.000                         1.000                         1.000                         1.000                         1.000                         1.000                         1.000                         1.000                         1.000                         1.000                         1.000                         1.000                         1.000                         -                             1.000                         1.000                         1.000                         -                             1.000                         1.000                         1.000                         1.000                         1.000                         
CMS_btag_hfstats1_2016                                      shape               1.000                         1.000                         1.000                         1.000                         1.000                         1.000                         1.000                         1.000                         1.000                         1.000                         1.000                         1.000                         1.000                         -                             1.000                         1.000                         1.000                         -                             1.000                         1.000                         1.000                         1.000                         1.000                         
CMS_btag_hfstats2_2016                                      shape               1.000                         1.000                         1.000                         1.000                         1.000                         1.000                         1.000                         1.000                         1.000                         1.000                         1.000                         1.000                         1.000                         -                             1.000                         1.000                         1.000                         -                             1.000                         1.000                         1.000                         1.000                         1.000                         
CMS_btag_lfstats1_2016                                      shape               1.000                         1.000                         1.000                         1.000                         1.000                         1.000                         1.000                         1.000                         1.000                         1.000                         1.000                         1.000                         1.000                         -                             1.000                         1.000                         1.000                         -                             1.000                         1.000                         1.000                         1.000                         1.000                         
CMS_btag_lfstats2_2016                                      shape               1.000                         1.000                         1.000                         1.000                         1.000                         1.000                         1.000                         1.000                         1.000                         1.000                         1.000                         1.000                         1.000                         -                             1.000                         1.000                         1.000                         -                             1.000                         1.000                         1.000                         1.000                         1.000                         
CMS_btag_cferr1                                             shape               1.000                         1.000                         1.000                         1.000                         1.000                         1.000                         1.000                         1.000                         1.000                         1.000                         1.000                         1.000                         1.000                         -                             1.000                         1.000                         1.000                         -                             1.000                         1.000                         1.000                         1.000                         1.000                         
CMS_btag_cferr2                                             shape               1.000                         1.000                         1.000                         1.000                         1.000                         1.000                         1.000                         1.000                         1.000                         1.000                         1.000                         1.000                         1.000                         -                             1.000                         1.000                         1.000                         -                             1.000                         1.000                         1.000                         1.000                         1.000                         
CMS_eff_hwwtrigger_2016                                     shape               1.000                         1.000                         1.000                         1.000                         1.000                         1.000                         1.000                         1.000                         1.000                         1.000                         1.000                         1.000                         1.000                         -                             1.000                         1.000                         1.000                         -                             1.000                         1.000                         1.000                         1.000                         1.000                         
CMS_eff_prefiring_2016                                      shape               1.000                         1.000                         1.000                         1.000                         1.000                         1.000                         1.000                         1.000                         1.000                         1.000                         1.000                         1.000                         1.000                         -                             1.000                         1.000                         1.000                         -                             1.000                         1.000                         1.000                         1.000                         1.000                         
CMS_eff_e_2016                                              shape               1.000                         1.000                         1.000                         1.000                         1.000                         1.000                         1.000                         1.000                         1.000                         1.000                         1.000                         1.000                         1.000                         -                             1.000                         1.000                         1.000                         -                             1.000                         1.000                         1.000                         1.000                         1.000                         
CMS_scale_e_2016                                            shape               1.000                         1.000                         1.000                         1.000                         1.000                         1.000                         1.000                         1.000                         1.000                         1.000                         1.000                         1.000                         1.000                         -                             1.000                         1.000                         1.000                         -                             1.000                         1.000                         1.000                         1.000                         1.000                         
CMS_eff_m_2016                                              shape               1.000                         1.000                         1.000                         1.000                         1.000                         1.000                         1.000                         1.000                         1.000                         1.000                         1.000                         1.000                         1.000                         -                             1.000                         1.000                         1.000                         -                             1.000                         1.000                         1.000                         1.000                         1.000                         
CMS_scale_m_2016                                            shape               1.000                         1.000                         1.000                         1.000                         1.000                         1.000                         1.000                         1.000                         1.000                         1.000                         1.000                         1.000                         1.000                         -                             1.000                         1.000                         1.000                         -                             1.000                         1.000                         1.000                         1.000                         1.000                         
CMS_scale_JESAbsolute                                       shape               1.000                         1.000                         1.000                         1.000                         1.000                         1.000                         1.000                         1.000                         1.000                         1.000                         1.000                         1.000                         1.000                         -                             1.000                         1.000                         1.000                         -                             1.000                         1.000                         1.000                         1.000                         1.000                         
CMS_scale_JESAbsolute_2016                                  shape               1.000                         1.000                         1.000                         1.000                         1.000                         1.000                         1.000                         1.000                         1.000                         1.000                         1.000                         1.000                         1.000                         -                             1.000                         1.000                         1.000                         -                             1.000                         1.000                         1.000                         1.000                         1.000                         
CMS_scale_JESBBEC1                                          shape               1.000                         1.000                         1.000                         1.000                         1.000                         1.000                         1.000                         1.000                         1.000                         1.000                         1.000                         1.000                         1.000                         -                             1.000                         1.000                         1.000                         -                             1.000                         1.000                         1.000                         1.000                         1.000                         
CMS_scale_JESBBEC1_2016                                     shape               1.000                         1.000                         1.000                         1.000                         1.000                         1.000                         1.000                         1.000                         1.000                         1.000                         1.000                         1.000                         1.000                         -                             1.000                         1.000                         1.000                         -                             1.000                         1.000                         1.000                         1.000                         1.000                         
CMS_scale_JESEC2                                            shape               1.000                         1.000                         1.000                         1.000                         1.000                         1.000                         1.000                         1.000                         1.000                         1.000                         1.000                         1.000                         1.000                         -                             1.000                         1.000                         1.000                         -                             1.000                         1.000                         1.000                         1.000                         1.000                         
CMS_scale_JESEC2_2016                                       shape               1.000                         1.000                         1.000                         1.000                         1.000                         1.000                         1.000                         1.000                         1.000                         1.000                         1.000                         1.000                         1.000                         -                             1.000                         1.000                         1.000                         -                             1.000                         1.000                         1.000                         1.000                         1.000                         
CMS_scale_JESFlavorQCD                                      shape               1.000                         1.000                         1.000                         1.000                         1.000                         1.000                         1.000                         1.000                         1.000                         1.000                         1.000                         1.000                         1.000                         -                             1.000                         1.000                         1.000                         -                             1.000                         1.000                         1.000                         1.000                         1.000                         
CMS_scale_JESHF                                             shape               1.000                         1.000                         1.000                         1.000                         1.000                         1.000                         1.000                         1.000                         1.000                         1.000                         1.000                         1.000                         1.000                         -                             1.000                         1.000                         1.000                         -                             1.000                         1.000                         1.000                         1.000                         1.000                         
CMS_scale_JESHF_2016                                        shape               1.000                         1.000                         1.000                         1.000                         1.000                         1.000                         1.000                         1.000                         1.000                         1.000                         1.000                         1.000                         1.000                         -                             1.000                         1.000                         1.000                         -                             1.000                         1.000                         1.000                         1.000                         1.000                         
CMS_scale_JESRelativeBal                                    shape               1.000                         1.000                         1.000                         1.000                         1.000                         1.000                         1.000                         1.000                         1.000                         1.000                         1.000                         1.000                         1.000                         -                             1.000                         1.000                         1.000                         -                             1.000                         1.000                         1.000                         1.000                         1.000                         
CMS_scale_JESRelativeSample_2016                            shape               1.000                         1.000                         1.000                         1.000                         1.000                         1.000                         1.000                         1.000                         1.000                         1.000                         1.000                         1.000                         1.000                         -                             1.000                         1.000                         1.000                         -                             1.000                         1.000                         1.000                         1.000                         1.000                         
CMS_res_j_2016                                              shape               1.000                         1.000                         1.000                         1.000                         1.000                         1.000                         1.000                         1.000                         1.000                         1.000                         1.000                         1.000                         1.000                         -                             1.000                         1.000                         1.000                         -                             1.000                         1.000                         1.000                         1.000                         1.000                         
CMS_scale_met_2016                                          shape               1.000                         1.000                         1.000                         1.000                         1.000                         1.000                         1.000                         1.000                         1.000                         1.000                         1.000                         1.000                         1.000                         -                             1.000                         1.000                         1.000                         -                             1.000                         1.000                         1.000                         1.000                         1.000                         
CMS_PUID_2016                                               shape               1.000                         1.000                         1.000                         1.000                         1.000                         1.000                         1.000                         1.000                         1.000                         1.000                         1.000                         1.000                         1.000                         -                             1.000                         1.000                         1.000                         -                             1.000                         1.000                         1.000                         1.000                         1.000                         
CMS_PU_2016                                                 shape               1.000                         1.000                         1.000                         1.000                         1.000                         1.000                         1.000                         1.000                         1.000                         1.000                         1.000                         1.000                         1.000                         -                             1.000                         1.000                         1.000                         -                             1.000                         1.000                         1.000                         1.000                         1.000                         
PS_ISR                                                      shape               -                             -                             -                             -                             -                             -                             -                             -                             -                             -                             -                             -                             1.000                         -                             1.000                         1.000                         1.000                         -                             1.000                         1.000                         -                             1.000                         -                             
PS_ISR                                                      shape               1.000                         1.000                         1.000                         1.000                         1.000                         1.000                         1.000                         1.000                         1.000                         1.000                         1.000                         1.000                         -                             -                             -                             -                             -                             -                             -                             -                             1.000                         -                             1.000                         
PS_FSR                                                      shape               -                             -                             -                             -                             -                             -                             -                             -                             -                             -                             -                             -                             1.000                         -                             1.000                         1.000                         1.000                         -                             1.000                         1.000                         -                             1.000                         -                             
PS_FSR                                                      shape               1.000                         1.000                         1.000                         1.000                         1.000                         1.000                         1.000                         1.000                         1.000                         1.000                         1.000                         1.000                         -                             -                             -                             -                             -                             -                             -                             -                             1.000                         -                             1.000                         
UE_CP5                                                      lnN                 -                             -                             -                             -                             -                             -                             -                             -                             -                             -                             -                             -                             1.015                         -                             1.015                         1.015                         1.015                         -                             1.015                         1.015                         -                             1.015                         -                             
singleTopToTTbar                                            shape               -                             -                             -                             -                             -                             -                             -                             -                             -                             -                             -                             -                             -                             -                             -                             -                             1.000                         -                             -                             -                             -                             -                             -                             
CMS_hww_WgStarScale                                         lnN                 -                             -                             -                             -                             -                             -                             -                             -                             -                             -                             -                             -                             -                             -                             -                             -                             -                             -                             -                             -                             -                             1.069                         -                             
pdf_Higgs                                                   lnN                 -                             -                             -                             -                             -                             -                             -                             -                             -                             -                             -                             -                             -                             -                             -                             -                             -                             -                             1.031                         -                             -                             -                             -                             
pdf_qqbar                                                   lnN                 -                             -                             -                             -                             -                             -                             -                             -                             -                             -                             -                             -                             -                             -                             1.04                          -                             -                             -                             -                             1.04                          -                             1.04                          -                             
pdf_Higgs_ACCEPT                                            lnN                 -                             -                             -                             -                             -                             -                             -                             -                             -                             -                             -                             -                             -                             -                             -                             -                             -                             -                             1.006                         -                             -                             -                             -                             
pdf_qqbar_ACCEPT                                            lnN                 -                             -                             -                             -                             -                             -                             -                             -                             -                             -                             -                             -                             -                             -                             1.001                         -                             -                             -                             -                             1.001                         -                             -                             -                             
CMS_hww_pdf_WW                                              shape               -                             -                             -                             -                             -                             -                             -                             -                             1.000                         1.000                         1.000                         1.000                         -                             -                             -                             -                             -                             -                             -                             -                             -                             -                             1.000                         
QCDscale_V                                                  shape               -                             -                             -                             -                             -                             -                             -                             -                             -                             -                             -                             -                             1.000                         -                             -                             -                             -                             -                             -                             -                             -                             -                             -                             
QCDscale_VV                                                 shape               -                             -                             -                             -                             -                             -                             -                             -                             -                             -                             -                             -                             -                             -                             1.000                         -                             -                             -                             -                             1.000                         -                             1.000                         -                             
QCDscale_WW                                                 shape               -                             -                             -                             -                             -                             -                             -                             -                             1.000                         1.000                         1.000                         1.000                         -                             -                             -                             -                             -                             -                             -                             -                             -                             -                             1.000                         
QCDscale_top_0j                                             shape               -                             -                             -                             -                             -                             -                             -                             -                             -                             -                             -                             -                             -                             -                             -                             -                             1.000                         -                             -                             -                             -                             -                             -                             
CMS_hww_WWresum                                             shape               -                             -                             -                             -                             -                             -                             -                             -                             1.000                         1.000                         1.000                         1.000                         -                             -                             -                             -                             -                             -                             -                             -                             -                             -                             1.000                         
CMS_hww_WWqscale                                            shape               -                             -                             -                             -                             -                             -                             -                             -                             1.000                         1.000                         1.000                         1.000                         -                             -                             -                             -                             -                             -                             -                             -                             -                             -                             1.000                         
QCDscale_Higgs                                              lnN                 -                             -                             -                             -                             -                             -                             -                             -                             -                             -                             -                             -                             -                             -                             -                             -                             -                             -                             0.936/1.046                   -                             -                             -                             -                             
QCDscale_WWewk                                              lnN                 -                             -                             -                             -                             -                             -                             -                             -                             -                             -                             -                             -                             -                             -                             -                             -                             -                             -                             -                             -                             -                             -                             -                             
QCDscale_Higgs_ACCEPT                                       lnN                 -                             -                             -                             -                             -                             -                             -                             -                             -                             -                             -                             -                             -                             -                             -                             -                             -                             -                             1.012                         -                             -                             -                             -                             
* autoMCStats 10  0
CMS_hww_Topnorm_0j                                          rateParam                ww2l2v_13TeV_sr_0j_B4         top                      1.0000                        
----------------------------------------------------------------------------------------------------

