## Shape input card
imax 1 number of channels
jmax * number of background
kmax * number of nuisance parameters
----------------------------------------------------------------------------------------------------
bin         ww2l2v_13TeV_sr_2j_B3
observation 1163
shapes  *           * shapes/histos_ww2l2v_13TeV_sr_2j_B3.root     histo_$PROCESS histo_$PROCESS_$SYSTEMATIC
shapes  data_obs           * shapes/histos_ww2l2v_13TeV_sr_2j_B3.root     histo_Data
bin                                                                             ww2l2v_13TeV_sr_2j_B3         ww2l2v_13TeV_sr_2j_B3         ww2l2v_13TeV_sr_2j_B3         ww2l2v_13TeV_sr_2j_B3         ww2l2v_13TeV_sr_2j_B3         ww2l2v_13TeV_sr_2j_B3         ww2l2v_13TeV_sr_2j_B3         ww2l2v_13TeV_sr_2j_B3         ww2l2v_13TeV_sr_2j_B3         ww2l2v_13TeV_sr_2j_B3         ww2l2v_13TeV_sr_2j_B3         ww2l2v_13TeV_sr_2j_B3         ww2l2v_13TeV_sr_2j_B3         ww2l2v_13TeV_sr_2j_B3         ww2l2v_13TeV_sr_2j_B3         ww2l2v_13TeV_sr_2j_B3         ww2l2v_13TeV_sr_2j_B3         ww2l2v_13TeV_sr_2j_B3         ww2l2v_13TeV_sr_2j_B3         ww2l2v_13TeV_sr_2j_B3         ww2l2v_13TeV_sr_2j_B3         ww2l2v_13TeV_sr_2j_B3         ww2l2v_13TeV_sr_2j_B3         
process                                                                         ggWW_B6                       ggWW_B4                       ggWW_B5                       ggWW_B2                       ggWW_B3                       ggWW_B1                       WW_B6                         WW_B4                         WW_B5                         WW_B2                         WW_B3                         WWewk                         DY                            Fake_em                       WZ                            Fake_me                       VVV                           top                           Higgs                         ZZ                            ggWW_nonfid                   Vg                            WW_nonfid                     
process                                                                         0                             -1                            -2                            -3                            -4                            -6                            -8                            -9                            -10                           -11                           -12                           1                             2                             3                             4                             5                             6                             7                             8                             9                             10                            11                            12                            
rate                                                                            0.0220                        0.5691                        0.0385                        0.4041                        5.0649                        0.0017                        0.4214                        9.7860                        0.9485                        7.9109                        76.7420                       4.7645                        7.6154                        22.8219                       13.5080                       17.2698                       3.4004                        1038.5259                     8.2605                        0.6615                        0.7698                        0.2902                        14.5299                       
----------------------------------------------------------------------------------------------------
lumi_13TeV_2017                                             lnN                 1.020                         1.020                         1.020                         1.020                         1.020                         1.020                         1.020                         1.020                         1.020                         1.020                         1.020                         1.020                         1.020                         -                             1.020                         -                             1.020                         -                             1.020                         1.020                         1.020                         1.020                         1.020                         
lumi_13TeV_correlated                                       lnN                 1.009                         1.009                         1.009                         1.009                         1.009                         1.009                         1.009                         1.009                         1.009                         1.009                         1.009                         1.009                         1.009                         -                             1.009                         -                             1.009                         -                             1.009                         1.009                         1.009                         1.009                         1.009                         
lumi_13TeV_1718                                             lnN                 1.006                         1.006                         1.006                         1.006                         1.006                         1.006                         1.006                         1.006                         1.006                         1.006                         1.006                         1.006                         1.006                         -                             1.006                         -                             1.006                         -                             1.006                         1.006                         1.006                         1.006                         1.006                         
CMS_fake_syst_em                                            lnN                 -                             -                             -                             -                             -                             -                             -                             -                             -                             -                             -                             -                             -                             1.3                           -                             -                             -                             -                             -                             -                             -                             -                             -                             
CMS_fake_syst_me                                            lnN                 -                             -                             -                             -                             -                             -                             -                             -                             -                             -                             -                             -                             -                             -                             -                             1.3                           -                             -                             -                             -                             -                             -                             -                             
CMS_fake_e_2017                                             shape               -                             -                             -                             -                             -                             -                             -                             -                             -                             -                             -                             -                             -                             1.000                         -                             1.000                         -                             -                             -                             -                             -                             -                             -                             
CMS_fake_stat_e_2017                                        shape               -                             -                             -                             -                             -                             -                             -                             -                             -                             -                             -                             -                             -                             1.000                         -                             1.000                         -                             -                             -                             -                             -                             -                             -                             
CMS_fake_m_2017                                             shape               -                             -                             -                             -                             -                             -                             -                             -                             -                             -                             -                             -                             -                             1.000                         -                             1.000                         -                             -                             -                             -                             -                             -                             -                             
CMS_fake_stat_m_2017                                        shape               -                             -                             -                             -                             -                             -                             -                             -                             -                             -                             -                             -                             -                             1.000                         -                             1.000                         -                             -                             -                             -                             -                             -                             -                             
CMS_btag_lf                                                 shape               1.000                         1.000                         1.000                         1.000                         1.000                         1.000                         1.000                         1.000                         1.000                         1.000                         1.000                         1.000                         1.000                         -                             1.000                         -                             1.000                         1.000                         1.000                         1.000                         1.000                         1.000                         1.000                         
CMS_btag_hf                                                 shape               1.000                         1.000                         1.000                         1.000                         1.000                         1.000                         1.000                         1.000                         1.000                         1.000                         1.000                         1.000                         1.000                         -                             1.000                         -                             1.000                         1.000                         1.000                         1.000                         1.000                         1.000                         1.000                         
CMS_btag_hfstats1_2017                                      shape               1.000                         1.000                         1.000                         1.000                         1.000                         1.000                         1.000                         1.000                         1.000                         1.000                         1.000                         1.000                         1.000                         -                             1.000                         -                             1.000                         1.000                         1.000                         1.000                         1.000                         1.000                         1.000                         
CMS_btag_hfstats2_2017                                      shape               1.000                         1.000                         1.000                         1.000                         1.000                         1.000                         1.000                         1.000                         1.000                         1.000                         1.000                         1.000                         1.000                         -                             1.000                         -                             1.000                         1.000                         1.000                         1.000                         1.000                         1.000                         1.000                         
CMS_btag_lfstats1_2017                                      shape               1.000                         1.000                         1.000                         1.000                         1.000                         1.000                         1.000                         1.000                         1.000                         1.000                         1.000                         1.000                         1.000                         -                             1.000                         -                             1.000                         1.000                         1.000                         1.000                         1.000                         1.000                         1.000                         
CMS_btag_lfstats2_2017                                      shape               1.000                         1.000                         1.000                         1.000                         1.000                         1.000                         1.000                         1.000                         1.000                         1.000                         1.000                         1.000                         1.000                         -                             1.000                         -                             1.000                         1.000                         1.000                         1.000                         1.000                         1.000                         1.000                         
CMS_btag_cferr1                                             shape               1.000                         1.000                         1.000                         1.000                         1.000                         1.000                         1.000                         1.000                         1.000                         1.000                         1.000                         1.000                         1.000                         -                             1.000                         -                             1.000                         1.000                         1.000                         1.000                         1.000                         1.000                         1.000                         
CMS_btag_cferr2                                             shape               1.000                         1.000                         1.000                         1.000                         1.000                         1.000                         1.000                         1.000                         1.000                         1.000                         1.000                         1.000                         1.000                         -                             1.000                         -                             1.000                         1.000                         1.000                         1.000                         1.000                         1.000                         1.000                         
CMS_eff_hwwtrigger_2017                                     shape               1.000                         1.000                         1.000                         1.000                         1.000                         1.000                         1.000                         1.000                         1.000                         1.000                         1.000                         1.000                         1.000                         -                             1.000                         -                             1.000                         1.000                         1.000                         1.000                         1.000                         1.000                         1.000                         
CMS_eff_prefiring_2017                                      shape               1.000                         1.000                         1.000                         1.000                         1.000                         1.000                         1.000                         1.000                         1.000                         1.000                         1.000                         1.000                         1.000                         -                             1.000                         -                             1.000                         1.000                         1.000                         1.000                         1.000                         1.000                         1.000                         
CMS_eff_e_2017                                              shape               1.000                         1.000                         1.000                         1.000                         1.000                         1.000                         1.000                         1.000                         1.000                         1.000                         1.000                         1.000                         1.000                         -                             1.000                         -                             1.000                         1.000                         1.000                         1.000                         1.000                         1.000                         1.000                         
CMS_scale_e_2017                                            shape               -                             -                             -                             -                             -                             -                             1.000                         1.000                         1.000                         1.000                         1.000                         1.000                         1.000                         -                             1.000                         -                             1.000                         1.000                         1.000                         1.000                         -                             1.000                         1.000                         
CMS_eff_m_2017                                              shape               1.000                         1.000                         1.000                         1.000                         1.000                         1.000                         1.000                         1.000                         1.000                         1.000                         1.000                         1.000                         1.000                         -                             1.000                         -                             1.000                         1.000                         1.000                         1.000                         1.000                         1.000                         1.000                         
CMS_scale_m_2017                                            shape               -                             -                             -                             -                             -                             -                             1.000                         1.000                         1.000                         1.000                         1.000                         1.000                         1.000                         -                             1.000                         -                             1.000                         1.000                         1.000                         1.000                         -                             1.000                         1.000                         
CMS_scale_JESAbsolute                                       shape               1.000                         1.000                         1.000                         1.000                         1.000                         1.000                         1.000                         1.000                         1.000                         1.000                         1.000                         1.000                         1.000                         -                             1.000                         -                             1.000                         1.000                         1.000                         1.000                         1.000                         1.000                         1.000                         
CMS_scale_JESAbsolute_2017                                  shape               1.000                         1.000                         1.000                         1.000                         1.000                         1.000                         1.000                         1.000                         1.000                         1.000                         1.000                         1.000                         1.000                         -                             1.000                         -                             1.000                         1.000                         1.000                         1.000                         1.000                         1.000                         1.000                         
CMS_scale_JESBBEC1                                          shape               1.000                         1.000                         1.000                         1.000                         1.000                         1.000                         1.000                         1.000                         1.000                         1.000                         1.000                         1.000                         1.000                         -                             1.000                         -                             1.000                         1.000                         1.000                         1.000                         1.000                         1.000                         1.000                         
CMS_scale_JESBBEC1_2017                                     shape               1.000                         1.000                         1.000                         1.000                         1.000                         1.000                         1.000                         1.000                         1.000                         1.000                         1.000                         1.000                         1.000                         -                             1.000                         -                             1.000                         1.000                         1.000                         1.000                         1.000                         1.000                         1.000                         
CMS_scale_JESEC2                                            shape               1.000                         1.000                         1.000                         1.000                         1.000                         1.000                         1.000                         1.000                         1.000                         1.000                         1.000                         1.000                         1.000                         -                             1.000                         -                             1.000                         1.000                         1.000                         1.000                         1.000                         1.000                         1.000                         
CMS_scale_JESEC2_2017                                       shape               1.000                         1.000                         1.000                         1.000                         1.000                         1.000                         1.000                         1.000                         1.000                         1.000                         1.000                         1.000                         1.000                         -                             1.000                         -                             1.000                         1.000                         1.000                         1.000                         1.000                         1.000                         1.000                         
CMS_scale_JESFlavorQCD                                      shape               1.000                         1.000                         1.000                         1.000                         1.000                         1.000                         1.000                         1.000                         1.000                         1.000                         1.000                         1.000                         1.000                         -                             1.000                         -                             1.000                         1.000                         1.000                         1.000                         1.000                         1.000                         1.000                         
CMS_scale_JESHF                                             shape               1.000                         1.000                         1.000                         1.000                         1.000                         1.000                         1.000                         1.000                         1.000                         1.000                         1.000                         1.000                         1.000                         -                             1.000                         -                             1.000                         1.000                         1.000                         1.000                         1.000                         1.000                         1.000                         
CMS_scale_JESHF_2017                                        shape               1.000                         1.000                         1.000                         1.000                         1.000                         1.000                         1.000                         1.000                         1.000                         1.000                         1.000                         1.000                         1.000                         -                             1.000                         -                             1.000                         1.000                         1.000                         1.000                         1.000                         1.000                         1.000                         
CMS_scale_JESRelativeBal                                    shape               1.000                         1.000                         1.000                         1.000                         1.000                         1.000                         1.000                         1.000                         1.000                         1.000                         1.000                         1.000                         1.000                         -                             1.000                         -                             1.000                         1.000                         1.000                         1.000                         1.000                         1.000                         1.000                         
CMS_scale_JESRelativeSample_2017                            shape               1.000                         1.000                         1.000                         1.000                         1.000                         1.000                         1.000                         1.000                         1.000                         1.000                         1.000                         1.000                         1.000                         -                             1.000                         -                             1.000                         1.000                         1.000                         1.000                         1.000                         1.000                         1.000                         
CMS_res_j_2017                                              shape               -                             -                             -                             -                             -                             -                             1.000                         1.000                         1.000                         1.000                         1.000                         1.000                         1.000                         -                             1.000                         -                             1.000                         1.000                         1.000                         1.000                         -                             1.000                         1.000                         
CMS_scale_met_2017                                          shape               1.000                         1.000                         1.000                         1.000                         1.000                         1.000                         1.000                         1.000                         1.000                         1.000                         1.000                         1.000                         1.000                         -                             1.000                         -                             1.000                         1.000                         1.000                         1.000                         1.000                         1.000                         1.000                         
CMS_PUID_2017                                               shape               1.000                         1.000                         1.000                         1.000                         1.000                         1.000                         1.000                         1.000                         1.000                         1.000                         1.000                         1.000                         1.000                         -                             1.000                         -                             1.000                         1.000                         1.000                         1.000                         1.000                         1.000                         1.000                         
CMS_PU_2017                                                 shape               1.000                         1.000                         1.000                         1.000                         1.000                         1.000                         1.000                         1.000                         1.000                         1.000                         1.000                         1.000                         1.000                         -                             1.000                         -                             1.000                         1.000                         1.000                         1.000                         1.000                         1.000                         1.000                         
PS_ISR                                                      shape               -                             -                             -                             -                             -                             -                             -                             -                             -                             -                             -                             1.000                         1.000                         -                             1.000                         -                             1.000                         1.000                         1.000                         1.000                         -                             1.000                         -                             
PS_ISR                                                      shape               1.000                         1.000                         1.000                         1.000                         1.000                         1.000                         1.000                         1.000                         1.000                         1.000                         1.000                         -                             -                             -                             -                             -                             -                             -                             -                             -                             1.000                         -                             1.000                         
PS_FSR                                                      shape               -                             -                             -                             -                             -                             -                             -                             -                             -                             -                             -                             1.000                         1.000                         -                             1.000                         -                             1.000                         1.000                         1.000                         1.000                         -                             1.000                         -                             
PS_FSR                                                      shape               1.000                         1.000                         1.000                         1.000                         1.000                         1.000                         1.000                         1.000                         1.000                         1.000                         1.000                         -                             -                             -                             -                             -                             -                             -                             -                             -                             1.000                         -                             1.000                         
UE_CP5                                                      lnN                 -                             -                             -                             -                             -                             -                             -                             -                             -                             -                             -                             1.015                         1.015                         -                             1.015                         -                             1.015                         1.015                         1.015                         1.015                         -                             1.015                         -                             
singleTopToTTbar                                            shape               -                             -                             -                             -                             -                             -                             -                             -                             -                             -                             -                             -                             -                             -                             -                             -                             -                             1.000                         -                             -                             -                             -                             -                             
CMS_hww_WgStarScale                                         lnN                 -                             -                             -                             -                             -                             -                             -                             -                             -                             -                             -                             -                             -                             -                             -                             -                             -                             -                             -                             -                             -                             1.097                         -                             
pdf_Higgs                                                   lnN                 -                             -                             -                             -                             -                             -                             -                             -                             -                             -                             -                             -                             -                             -                             -                             -                             -                             -                             1.028                         -                             -                             -                             -                             
pdf_qqbar                                                   lnN                 -                             -                             -                             -                             -                             -                             -                             -                             -                             -                             -                             -                             -                             -                             1.04                          -                             -                             -                             -                             1.04                          -                             1.04                          -                             
pdf_Higgs_ACCEPT                                            lnN                 -                             -                             -                             -                             -                             -                             -                             -                             -                             -                             -                             -                             -                             -                             -                             -                             -                             -                             1.005                         -                             -                             -                             -                             
pdf_qqbar_ACCEPT                                            lnN                 -                             -                             -                             -                             -                             -                             -                             -                             -                             -                             -                             -                             -                             -                             1.001                         -                             -                             -                             -                             1.001                         -                             -                             -                             
CMS_hww_pdf_WW                                              shape               -                             -                             -                             -                             -                             -                             1.000                         1.000                         1.000                         1.000                         1.000                         -                             -                             -                             -                             -                             -                             -                             -                             -                             -                             -                             1.000                         
QCDscale_V                                                  shape               -                             -                             -                             -                             -                             -                             -                             -                             -                             -                             -                             -                             1.000                         -                             -                             -                             -                             -                             -                             -                             -                             -                             -                             
QCDscale_VV                                                 shape               -                             -                             -                             -                             -                             -                             -                             -                             -                             -                             -                             -                             -                             -                             1.000                         -                             -                             -                             -                             1.000                         -                             1.000                         -                             
QCDscale_WW                                                 shape               -                             -                             -                             -                             -                             -                             1.000                         1.000                         1.000                         1.000                         1.000                         -                             -                             -                             -                             -                             -                             -                             -                             -                             -                             -                             1.000                         
QCDscale_top_2j                                             shape               -                             -                             -                             -                             -                             -                             -                             -                             -                             -                             -                             -                             -                             -                             -                             -                             -                             1.000                         -                             -                             -                             -                             -                             
CMS_hww_WWresum                                             shape               -                             -                             -                             -                             -                             -                             1.000                         1.000                         1.000                         1.000                         1.000                         -                             -                             -                             -                             -                             -                             -                             -                             -                             -                             -                             1.000                         
CMS_hww_WWqscale                                            shape               -                             -                             -                             -                             -                             -                             1.000                         1.000                         1.000                         1.000                         1.000                         -                             -                             -                             -                             -                             -                             -                             -                             -                             -                             -                             1.000                         
QCDscale_Higgs                                              lnN                 -                             -                             -                             -                             -                             -                             -                             -                             -                             -                             -                             -                             -                             -                             -                             -                             -                             -                             0.948/1.038                   -                             -                             -                             -                             
QCDscale_WWewk                                              lnN                 -                             -                             -                             -                             -                             -                             -                             -                             -                             -                             -                             1.11                          -                             -                             -                             -                             -                             -                             -                             -                             -                             -                             -                             
QCDscale_Higgs_ACCEPT                                       lnN                 -                             -                             -                             -                             -                             -                             -                             -                             -                             -                             -                             -                             -                             -                             -                             -                             -                             -                             1.010                         -                             -                             -                             -                             
* autoMCStats 10  0
CMS_hww_Topnorm_2j                                          rateParam                ww2l2v_13TeV_sr_2j_B3         top                      1.0000                        
----------------------------------------------------------------------------------------------------

