## Shape input card
imax 1 number of channels
jmax * number of background
kmax * number of nuisance parameters
----------------------------------------------------------------------------------------------------
bin         ww2l2v_13TeV_sr_1j_B4
observation 1466
shapes  *           * shapes/histos_ww2l2v_13TeV_sr_1j_B4.root     histo_$PROCESS histo_$PROCESS_$SYSTEMATIC
shapes  data_obs           * shapes/histos_ww2l2v_13TeV_sr_1j_B4.root     histo_Data
bin                                                                             ww2l2v_13TeV_sr_1j_B4         ww2l2v_13TeV_sr_1j_B4         ww2l2v_13TeV_sr_1j_B4         ww2l2v_13TeV_sr_1j_B4         ww2l2v_13TeV_sr_1j_B4         ww2l2v_13TeV_sr_1j_B4         ww2l2v_13TeV_sr_1j_B4         ww2l2v_13TeV_sr_1j_B4         ww2l2v_13TeV_sr_1j_B4         ww2l2v_13TeV_sr_1j_B4         ww2l2v_13TeV_sr_1j_B4         ww2l2v_13TeV_sr_1j_B4         ww2l2v_13TeV_sr_1j_B4         ww2l2v_13TeV_sr_1j_B4         ww2l2v_13TeV_sr_1j_B4         ww2l2v_13TeV_sr_1j_B4         ww2l2v_13TeV_sr_1j_B4         ww2l2v_13TeV_sr_1j_B4         ww2l2v_13TeV_sr_1j_B4         ww2l2v_13TeV_sr_1j_B4         ww2l2v_13TeV_sr_1j_B4         ww2l2v_13TeV_sr_1j_B4         ww2l2v_13TeV_sr_1j_B4         ww2l2v_13TeV_sr_1j_B4         ww2l2v_13TeV_sr_1j_B4         ww2l2v_13TeV_sr_1j_B4         ww2l2v_13TeV_sr_1j_B4         ww2l2v_13TeV_sr_1j_B4         ww2l2v_13TeV_sr_1j_B4         ww2l2v_13TeV_sr_1j_B4         ww2l2v_13TeV_sr_1j_B4         ww2l2v_13TeV_sr_1j_B4         
process                                                                         WW_B8                         ggWW_B10                      ggWW_B6                       ggWW_B7                       ggWW_B4                       ggWW_B5                       ggWW_B2                       ggWW_B3                       ggWW_B0                       ggWW_B1                       ggWW_B8                       ggWW_B9                       WW_B0                         WW_B6                         WW_B7                         WW_B4                         WW_B5                         WW_B2                         WW_B3                         WW_B1                         WWewk                         DY                            Fake_em                       WZ                            VVV                           top                           Fake_me                       Higgs                         ZZ                            ggWW_nonfid                   Vg                            WW_nonfid                     
process                                                                         0                             -1                            -2                            -3                            -4                            -5                            -6                            -7                            -8                            -9                            -10                           -11                           -12                           -15                           -16                           -17                           -18                           -19                           -20                           -21                           1                             2                             3                             4                             5                             6                             7                             8                             9                             10                            11                            12                            
rate                                                                            0.1185                        0.0006                        0.0557                        0.0042                        8.0274                        1.3621                        0.5720                        5.6662                        0.0056                        0.0174                        0.0035                        0.0007                        0.0567                        2.1424                        0.4295                        191.7071                      48.9676                       8.9314                        104.5162                      0.1419                        10.7054                       22.7500                       26.0676                       26.9750                       3.1787                        1051.7038                     25.6864                       21.2580                       0.4184                        2.3207                        1.2780                        51.7372                       
----------------------------------------------------------------------------------------------------
lumi_13TeV_2018                                             lnN                 1.015                         1.015                         1.015                         1.015                         1.015                         1.015                         1.015                         1.015                         1.015                         1.015                         1.015                         1.015                         1.015                         1.015                         1.015                         1.015                         1.015                         1.015                         1.015                         1.015                         1.015                         1.015                         -                             1.015                         1.015                         -                             -                             1.015                         1.015                         1.015                         1.015                         1.015                         
lumi_13TeV_correlated                                       lnN                 1.020                         1.020                         1.020                         1.020                         1.020                         1.020                         1.020                         1.020                         1.020                         1.020                         1.020                         1.020                         1.020                         1.020                         1.020                         1.020                         1.020                         1.020                         1.020                         1.020                         1.020                         1.020                         -                             1.020                         1.020                         -                             -                             1.020                         1.020                         1.020                         1.020                         1.020                         
lumi_13TeV_1718                                             lnN                 1.002                         1.002                         1.002                         1.002                         1.002                         1.002                         1.002                         1.002                         1.002                         1.002                         1.002                         1.002                         1.002                         1.002                         1.002                         1.002                         1.002                         1.002                         1.002                         1.002                         1.002                         1.002                         -                             1.002                         1.002                         -                             -                             1.002                         1.002                         1.002                         1.002                         1.002                         
CMS_fake_syst_em                                            lnN                 -                             -                             -                             -                             -                             -                             -                             -                             -                             -                             -                             -                             -                             -                             -                             -                             -                             -                             -                             -                             -                             -                             1.3                           -                             -                             -                             -                             -                             -                             -                             -                             -                             
CMS_fake_syst_me                                            lnN                 -                             -                             -                             -                             -                             -                             -                             -                             -                             -                             -                             -                             -                             -                             -                             -                             -                             -                             -                             -                             -                             -                             -                             -                             -                             -                             1.3                           -                             -                             -                             -                             -                             
CMS_fake_e_2018                                             shape               -                             -                             -                             -                             -                             -                             -                             -                             -                             -                             -                             -                             -                             -                             -                             -                             -                             -                             -                             -                             -                             -                             1.000                         -                             -                             -                             1.000                         -                             -                             -                             -                             -                             
CMS_fake_stat_e_2018                                        shape               -                             -                             -                             -                             -                             -                             -                             -                             -                             -                             -                             -                             -                             -                             -                             -                             -                             -                             -                             -                             -                             -                             1.000                         -                             -                             -                             1.000                         -                             -                             -                             -                             -                             
CMS_fake_m_2018                                             shape               -                             -                             -                             -                             -                             -                             -                             -                             -                             -                             -                             -                             -                             -                             -                             -                             -                             -                             -                             -                             -                             -                             1.000                         -                             -                             -                             1.000                         -                             -                             -                             -                             -                             
CMS_fake_stat_m_2018                                        shape               -                             -                             -                             -                             -                             -                             -                             -                             -                             -                             -                             -                             -                             -                             -                             -                             -                             -                             -                             -                             -                             -                             1.000                         -                             -                             -                             1.000                         -                             -                             -                             -                             -                             
CMS_btag_lf                                                 shape               1.000                         1.000                         1.000                         1.000                         1.000                         1.000                         1.000                         1.000                         1.000                         1.000                         1.000                         1.000                         1.000                         1.000                         1.000                         1.000                         1.000                         1.000                         1.000                         1.000                         1.000                         1.000                         -                             1.000                         1.000                         1.000                         -                             1.000                         1.000                         1.000                         1.000                         1.000                         
CMS_btag_hf                                                 shape               1.000                         1.000                         1.000                         1.000                         1.000                         1.000                         1.000                         1.000                         1.000                         1.000                         1.000                         1.000                         1.000                         1.000                         1.000                         1.000                         1.000                         1.000                         1.000                         1.000                         1.000                         1.000                         -                             1.000                         1.000                         1.000                         -                             1.000                         1.000                         1.000                         1.000                         1.000                         
CMS_btag_hfstats1_2018                                      shape               1.000                         1.000                         1.000                         1.000                         1.000                         1.000                         1.000                         1.000                         1.000                         1.000                         1.000                         1.000                         1.000                         1.000                         1.000                         1.000                         1.000                         1.000                         1.000                         1.000                         1.000                         1.000                         -                             1.000                         1.000                         1.000                         -                             1.000                         1.000                         1.000                         1.000                         1.000                         
CMS_btag_hfstats2_2018                                      shape               1.000                         1.000                         1.000                         1.000                         1.000                         1.000                         1.000                         1.000                         1.000                         1.000                         1.000                         1.000                         1.000                         1.000                         1.000                         1.000                         1.000                         1.000                         1.000                         1.000                         1.000                         1.000                         -                             1.000                         1.000                         1.000                         -                             1.000                         1.000                         1.000                         1.000                         1.000                         
CMS_btag_lfstats1_2018                                      shape               1.000                         1.000                         1.000                         1.000                         1.000                         1.000                         1.000                         1.000                         1.000                         1.000                         1.000                         1.000                         1.000                         1.000                         1.000                         1.000                         1.000                         1.000                         1.000                         1.000                         1.000                         1.000                         -                             1.000                         1.000                         1.000                         -                             1.000                         1.000                         1.000                         1.000                         1.000                         
CMS_btag_lfstats2_2018                                      shape               1.000                         1.000                         1.000                         1.000                         1.000                         1.000                         1.000                         1.000                         1.000                         1.000                         1.000                         1.000                         1.000                         1.000                         1.000                         1.000                         1.000                         1.000                         1.000                         1.000                         1.000                         1.000                         -                             1.000                         1.000                         1.000                         -                             1.000                         1.000                         1.000                         1.000                         1.000                         
CMS_btag_cferr1                                             shape               1.000                         1.000                         1.000                         1.000                         1.000                         1.000                         1.000                         1.000                         1.000                         1.000                         1.000                         1.000                         1.000                         1.000                         1.000                         1.000                         1.000                         1.000                         1.000                         1.000                         1.000                         1.000                         -                             1.000                         1.000                         1.000                         -                             1.000                         1.000                         1.000                         1.000                         1.000                         
CMS_btag_cferr2                                             shape               1.000                         1.000                         1.000                         1.000                         1.000                         1.000                         1.000                         1.000                         1.000                         1.000                         1.000                         1.000                         1.000                         1.000                         1.000                         1.000                         1.000                         1.000                         1.000                         1.000                         1.000                         1.000                         -                             1.000                         1.000                         1.000                         -                             1.000                         1.000                         1.000                         1.000                         1.000                         
CMS_eff_hwwtrigger_2018                                     shape               1.000                         1.000                         1.000                         1.000                         1.000                         1.000                         1.000                         1.000                         1.000                         1.000                         1.000                         1.000                         1.000                         1.000                         1.000                         1.000                         1.000                         1.000                         1.000                         1.000                         1.000                         1.000                         -                             1.000                         1.000                         1.000                         -                             1.000                         1.000                         1.000                         1.000                         1.000                         
CMS_eff_e_2018                                              shape               1.000                         1.000                         1.000                         1.000                         1.000                         1.000                         1.000                         1.000                         1.000                         1.000                         1.000                         1.000                         1.000                         1.000                         1.000                         1.000                         1.000                         1.000                         1.000                         1.000                         1.000                         1.000                         -                             1.000                         1.000                         1.000                         -                             1.000                         1.000                         1.000                         1.000                         1.000                         
CMS_scale_e_2018                                            shape               1.000                         1.000                         1.000                         1.000                         1.000                         1.000                         1.000                         1.000                         1.000                         1.000                         1.000                         1.000                         1.000                         1.000                         1.000                         1.000                         1.000                         1.000                         1.000                         1.000                         1.000                         1.000                         -                             1.000                         1.000                         1.000                         -                             1.000                         1.000                         1.000                         1.000                         1.000                         
CMS_eff_m_2018                                              shape               1.000                         1.000                         1.000                         1.000                         1.000                         1.000                         1.000                         1.000                         1.000                         1.000                         1.000                         1.000                         1.000                         1.000                         1.000                         1.000                         1.000                         1.000                         1.000                         1.000                         1.000                         1.000                         -                             1.000                         1.000                         1.000                         -                             1.000                         1.000                         1.000                         1.000                         1.000                         
CMS_scale_m_2018                                            shape               1.000                         1.000                         1.000                         1.000                         1.000                         1.000                         1.000                         1.000                         1.000                         1.000                         1.000                         1.000                         1.000                         1.000                         1.000                         1.000                         1.000                         1.000                         1.000                         1.000                         1.000                         1.000                         -                             1.000                         1.000                         1.000                         -                             1.000                         1.000                         1.000                         1.000                         1.000                         
CMS_scale_JESAbsolute                                       shape               1.000                         1.000                         1.000                         1.000                         1.000                         1.000                         1.000                         1.000                         1.000                         1.000                         1.000                         1.000                         1.000                         1.000                         1.000                         1.000                         1.000                         1.000                         1.000                         1.000                         1.000                         1.000                         -                             1.000                         1.000                         1.000                         -                             1.000                         1.000                         1.000                         1.000                         1.000                         
CMS_scale_JESAbsolute_2018                                  shape               1.000                         1.000                         1.000                         1.000                         1.000                         1.000                         1.000                         1.000                         1.000                         1.000                         1.000                         1.000                         1.000                         1.000                         1.000                         1.000                         1.000                         1.000                         1.000                         1.000                         1.000                         1.000                         -                             1.000                         1.000                         1.000                         -                             1.000                         1.000                         1.000                         1.000                         1.000                         
CMS_scale_JESBBEC1                                          shape               1.000                         1.000                         1.000                         1.000                         1.000                         1.000                         1.000                         1.000                         1.000                         1.000                         1.000                         1.000                         1.000                         1.000                         1.000                         1.000                         1.000                         1.000                         1.000                         1.000                         1.000                         1.000                         -                             1.000                         1.000                         1.000                         -                             1.000                         1.000                         1.000                         1.000                         1.000                         
CMS_scale_JESBBEC1_2018                                     shape               1.000                         1.000                         1.000                         1.000                         1.000                         1.000                         1.000                         1.000                         1.000                         1.000                         1.000                         1.000                         1.000                         1.000                         1.000                         1.000                         1.000                         1.000                         1.000                         1.000                         1.000                         1.000                         -                             1.000                         1.000                         1.000                         -                             1.000                         1.000                         1.000                         1.000                         1.000                         
CMS_scale_JESEC2                                            shape               1.000                         1.000                         1.000                         1.000                         1.000                         1.000                         1.000                         1.000                         1.000                         1.000                         1.000                         1.000                         1.000                         1.000                         1.000                         1.000                         1.000                         1.000                         1.000                         1.000                         1.000                         1.000                         -                             1.000                         1.000                         1.000                         -                             1.000                         1.000                         1.000                         1.000                         1.000                         
CMS_scale_JESEC2_2018                                       shape               1.000                         1.000                         1.000                         1.000                         1.000                         1.000                         1.000                         1.000                         1.000                         1.000                         1.000                         1.000                         1.000                         1.000                         1.000                         1.000                         1.000                         1.000                         1.000                         1.000                         1.000                         1.000                         -                             1.000                         1.000                         1.000                         -                             1.000                         1.000                         1.000                         1.000                         1.000                         
CMS_scale_JESFlavorQCD                                      shape               1.000                         1.000                         1.000                         1.000                         1.000                         1.000                         1.000                         1.000                         1.000                         1.000                         1.000                         1.000                         1.000                         1.000                         1.000                         1.000                         1.000                         1.000                         1.000                         1.000                         1.000                         1.000                         -                             1.000                         1.000                         1.000                         -                             1.000                         1.000                         1.000                         1.000                         1.000                         
CMS_scale_JESHF                                             shape               1.000                         1.000                         1.000                         1.000                         1.000                         1.000                         1.000                         1.000                         1.000                         1.000                         1.000                         1.000                         1.000                         1.000                         1.000                         1.000                         1.000                         1.000                         1.000                         1.000                         1.000                         1.000                         -                             1.000                         1.000                         1.000                         -                             1.000                         1.000                         1.000                         1.000                         1.000                         
CMS_scale_JESHF_2018                                        shape               1.000                         1.000                         1.000                         1.000                         1.000                         1.000                         1.000                         1.000                         1.000                         1.000                         1.000                         1.000                         1.000                         1.000                         1.000                         1.000                         1.000                         1.000                         1.000                         1.000                         1.000                         1.000                         -                             1.000                         1.000                         1.000                         -                             1.000                         1.000                         1.000                         1.000                         1.000                         
CMS_scale_JESRelativeBal                                    shape               1.000                         1.000                         1.000                         1.000                         1.000                         1.000                         1.000                         1.000                         1.000                         1.000                         1.000                         1.000                         1.000                         1.000                         1.000                         1.000                         1.000                         1.000                         1.000                         1.000                         1.000                         1.000                         -                             1.000                         1.000                         1.000                         -                             1.000                         1.000                         1.000                         1.000                         1.000                         
CMS_scale_JESRelativeSample_2018                            shape               1.000                         1.000                         1.000                         1.000                         1.000                         1.000                         1.000                         1.000                         1.000                         1.000                         1.000                         1.000                         1.000                         1.000                         1.000                         1.000                         1.000                         1.000                         1.000                         1.000                         1.000                         1.000                         -                             1.000                         1.000                         1.000                         -                             1.000                         1.000                         1.000                         1.000                         1.000                         
CMS_res_j_2018                                              shape               1.000                         1.000                         1.000                         1.000                         1.000                         1.000                         1.000                         1.000                         1.000                         1.000                         1.000                         1.000                         1.000                         1.000                         1.000                         1.000                         1.000                         1.000                         1.000                         1.000                         1.000                         1.000                         -                             1.000                         1.000                         1.000                         -                             1.000                         1.000                         1.000                         1.000                         1.000                         
CMS_scale_met_2018                                          shape               1.000                         1.000                         1.000                         1.000                         1.000                         1.000                         1.000                         1.000                         1.000                         1.000                         1.000                         1.000                         1.000                         1.000                         1.000                         1.000                         1.000                         1.000                         1.000                         1.000                         1.000                         1.000                         -                             1.000                         1.000                         1.000                         -                             1.000                         1.000                         1.000                         1.000                         1.000                         
CMS_PU_2018                                                 shape               1.000                         1.000                         1.000                         1.000                         1.000                         1.000                         1.000                         1.000                         1.000                         1.000                         1.000                         1.000                         1.000                         1.000                         1.000                         1.000                         1.000                         1.000                         1.000                         1.000                         1.000                         1.000                         -                             1.000                         1.000                         1.000                         -                             1.000                         1.000                         1.000                         1.000                         1.000                         
CMS_PUID_2018                                               shape               1.000                         1.000                         1.000                         1.000                         1.000                         1.000                         1.000                         1.000                         1.000                         1.000                         1.000                         1.000                         1.000                         1.000                         1.000                         1.000                         1.000                         1.000                         1.000                         1.000                         1.000                         1.000                         -                             1.000                         1.000                         1.000                         -                             1.000                         1.000                         1.000                         1.000                         1.000                         
PS_ISR                                                      shape               -                             -                             -                             -                             -                             -                             -                             -                             -                             -                             -                             -                             -                             -                             -                             -                             -                             -                             -                             -                             1.000                         1.000                         -                             1.000                         1.000                         1.000                         -                             1.000                         1.000                         -                             1.000                         -                             
PS_ISR                                                      shape               1.000                         1.000                         1.000                         1.000                         1.000                         1.000                         1.000                         1.000                         1.000                         1.000                         1.000                         1.000                         1.000                         1.000                         1.000                         1.000                         1.000                         1.000                         1.000                         1.000                         -                             -                             -                             -                             -                             -                             -                             -                             -                             1.000                         -                             1.000                         
PS_FSR                                                      shape               -                             -                             -                             -                             -                             -                             -                             -                             -                             -                             -                             -                             -                             -                             -                             -                             -                             -                             -                             -                             1.000                         1.000                         -                             1.000                         1.000                         1.000                         -                             1.000                         1.000                         -                             1.000                         -                             
PS_FSR                                                      shape               1.000                         1.000                         1.000                         1.000                         1.000                         1.000                         1.000                         1.000                         1.000                         1.000                         1.000                         1.000                         1.000                         1.000                         1.000                         1.000                         1.000                         1.000                         1.000                         1.000                         -                             -                             -                             -                             -                             -                             -                             -                             -                             1.000                         -                             1.000                         
UE_CP5                                                      lnN                 -                             -                             -                             -                             -                             -                             -                             -                             -                             -                             -                             -                             -                             -                             -                             -                             -                             -                             -                             -                             1.015                         1.015                         -                             1.015                         1.015                         1.015                         -                             1.015                         1.015                         -                             1.015                         -                             
singleTopToTTbar                                            shape               -                             -                             -                             -                             -                             -                             -                             -                             -                             -                             -                             -                             -                             -                             -                             -                             -                             -                             -                             -                             -                             -                             -                             -                             -                             1.000                         -                             -                             -                             -                             -                             -                             
CMS_hww_WgStarScale                                         lnN                 -                             -                             -                             -                             -                             -                             -                             -                             -                             -                             -                             -                             -                             -                             -                             -                             -                             -                             -                             -                             -                             -                             -                             -                             -                             -                             -                             -                             -                             -                             1.105                         -                             
CMS_hww_VZScale                                             lnN                 -                             -                             -                             -                             -                             -                             -                             -                             -                             -                             -                             -                             -                             -                             -                             -                             -                             -                             -                             -                             -                             -                             -                             1.16                          -                             -                             -                             -                             -                             -                             -                             -                             
pdf_Higgs                                                   lnN                 -                             -                             -                             -                             -                             -                             -                             -                             -                             -                             -                             -                             -                             -                             -                             -                             -                             -                             -                             -                             -                             -                             -                             -                             -                             -                             -                             1.028                         -                             -                             -                             -                             
pdf_qqbar                                                   lnN                 -                             -                             -                             -                             -                             -                             -                             -                             -                             -                             -                             -                             -                             -                             -                             -                             -                             -                             -                             -                             -                             -                             -                             1.04                          -                             -                             -                             -                             1.04                          -                             1.04                          -                             
pdf_Higgs_ACCEPT                                            lnN                 -                             -                             -                             -                             -                             -                             -                             -                             -                             -                             -                             -                             -                             -                             -                             -                             -                             -                             -                             -                             -                             -                             -                             -                             -                             -                             -                             1.005                         -                             -                             -                             -                             
pdf_qqbar_ACCEPT                                            lnN                 -                             -                             -                             -                             -                             -                             -                             -                             -                             -                             -                             -                             -                             -                             -                             -                             -                             -                             -                             -                             -                             -                             -                             1.001                         -                             -                             -                             -                             -                             -                             -                             -                             
CMS_hww_pdf_WW                                              shape               1.000                         -                             -                             -                             -                             -                             -                             -                             -                             -                             -                             -                             1.000                         1.000                         1.000                         1.000                         1.000                         1.000                         1.000                         1.000                         -                             -                             -                             -                             -                             -                             -                             -                             -                             -                             -                             1.000                         
QCDscale_V                                                  shape               -                             -                             -                             -                             -                             -                             -                             -                             -                             -                             -                             -                             -                             -                             -                             -                             -                             -                             -                             -                             -                             1.000                         -                             -                             -                             -                             -                             -                             -                             -                             -                             -                             
QCDscale_VV                                                 shape               -                             -                             -                             -                             -                             -                             -                             -                             -                             -                             -                             -                             -                             -                             -                             -                             -                             -                             -                             -                             -                             -                             -                             1.000                         -                             -                             -                             -                             1.000                         -                             1.000                         -                             
QCDscale_WW                                                 shape               1.000                         -                             -                             -                             -                             -                             -                             -                             -                             -                             -                             -                             1.000                         1.000                         1.000                         1.000                         1.000                         1.000                         1.000                         1.000                         -                             -                             -                             -                             -                             -                             -                             -                             -                             -                             -                             1.000                         
QCDscale_top_1j                                             shape               -                             -                             -                             -                             -                             -                             -                             -                             -                             -                             -                             -                             -                             -                             -                             -                             -                             -                             -                             -                             -                             -                             -                             -                             -                             1.000                         -                             -                             -                             -                             -                             -                             
QCDscale_ggVV                                               lnN                 -                             1.15                          1.15                          1.15                          1.15                          1.15                          1.15                          1.15                          1.15                          1.15                          1.15                          1.15                          -                             -                             -                             -                             -                             -                             -                             -                             -                             -                             -                             -                             -                             -                             -                             -                             -                             1.15                          -                             -                             
CMS_hww_WWresum                                             shape               1.000                         -                             -                             -                             -                             -                             -                             -                             -                             -                             -                             -                             1.000                         1.000                         1.000                         1.000                         1.000                         1.000                         1.000                         1.000                         -                             -                             -                             -                             -                             -                             -                             -                             -                             -                             -                             1.000                         
CMS_hww_WWqscale                                            shape               1.000                         -                             -                             -                             -                             -                             -                             -                             -                             -                             -                             -                             1.000                         1.000                         1.000                         1.000                         1.000                         1.000                         1.000                         1.000                         -                             -                             -                             -                             -                             -                             -                             -                             -                             -                             -                             1.000                         
QCDscale_Higgs                                              lnN                 -                             -                             -                             -                             -                             -                             -                             -                             -                             -                             -                             -                             -                             -                             -                             -                             -                             -                             -                             -                             -                             -                             -                             -                             -                             -                             -                             0.953/1.033                   -                             -                             -                             -                             
QCDscale_WWewk                                              lnN                 -                             -                             -                             -                             -                             -                             -                             -                             -                             -                             -                             -                             -                             -                             -                             -                             -                             -                             -                             -                             1.11                          -                             -                             -                             -                             -                             -                             -                             -                             -                             -                             -                             
QCDscale_Higgs_ACCEPT                                       lnN                 -                             -                             -                             -                             -                             -                             -                             -                             -                             -                             -                             -                             -                             -                             -                             -                             -                             -                             -                             -                             -                             -                             -                             -                             -                             -                             -                             1.010                         -                             -                             -                             -                             
* autoMCStats 10  0
CMS_hww_Topnorm_1j                                          rateParam                ww2l2v_13TeV_sr_1j_B4         top                      1.0000                        
----------------------------------------------------------------------------------------------------

