## Shape input card
imax 1 number of channels
jmax * number of background
kmax * number of nuisance parameters
----------------------------------------------------------------------------------------------------
bin         ww2l2v_13TeV_sr_2j_B10
observation 188
shapes  *           * shapes/histos_ww2l2v_13TeV_sr_2j_B10.root     histo_$PROCESS histo_$PROCESS_$SYSTEMATIC
shapes  data_obs           * shapes/histos_ww2l2v_13TeV_sr_2j_B10.root     histo_Data
bin                                                                             ww2l2v_13TeV_sr_2j_B10        ww2l2v_13TeV_sr_2j_B10        ww2l2v_13TeV_sr_2j_B10        ww2l2v_13TeV_sr_2j_B10        ww2l2v_13TeV_sr_2j_B10        ww2l2v_13TeV_sr_2j_B10        ww2l2v_13TeV_sr_2j_B10        ww2l2v_13TeV_sr_2j_B10        ww2l2v_13TeV_sr_2j_B10        ww2l2v_13TeV_sr_2j_B10        ww2l2v_13TeV_sr_2j_B10        ww2l2v_13TeV_sr_2j_B10        ww2l2v_13TeV_sr_2j_B10        ww2l2v_13TeV_sr_2j_B10        ww2l2v_13TeV_sr_2j_B10        ww2l2v_13TeV_sr_2j_B10        ww2l2v_13TeV_sr_2j_B10        
process                                                                         WW_B8                         ggWW_B10                      ggWW_B8                       ggWW_B9                       WW_B10                        WW_B9                         WWewk                         DY                            Fake_em                       WZ                            VVV                           top                           Fake_me                       Higgs                         ZZ                            ggWW_nonfid                   WW_nonfid                     
process                                                                         0                             -1                            -10                           -11                           -13                           -14                           1                             2                             3                             4                             5                             6                             7                             8                             9                             10                            12                            
rate                                                                            0.7914                        0.1189                        0.0041                        0.0532                        20.6146                       11.1286                       5.8669                        4.1647                        5.0721                        5.8526                        1.9219                        134.2005                      1.9576                        2.0263                        0.0555                        0.0435                        6.4925                        
----------------------------------------------------------------------------------------------------
lumi_13TeV_2018                                             lnN                 1.015                         1.015                         1.015                         1.015                         1.015                         1.015                         1.015                         1.015                         -                             1.015                         1.015                         -                             -                             1.015                         1.015                         1.015                         1.015                         
lumi_13TeV_correlated                                       lnN                 1.020                         1.020                         1.020                         1.020                         1.020                         1.020                         1.020                         1.020                         -                             1.020                         1.020                         -                             -                             1.020                         1.020                         1.020                         1.020                         
lumi_13TeV_1718                                             lnN                 1.002                         1.002                         1.002                         1.002                         1.002                         1.002                         1.002                         1.002                         -                             1.002                         1.002                         -                             -                             1.002                         1.002                         1.002                         1.002                         
CMS_fake_syst_em                                            lnN                 -                             -                             -                             -                             -                             -                             -                             -                             1.3                           -                             -                             -                             -                             -                             -                             -                             -                             
CMS_fake_syst_me                                            lnN                 -                             -                             -                             -                             -                             -                             -                             -                             -                             -                             -                             -                             1.3                           -                             -                             -                             -                             
CMS_fake_e_2018                                             shape               -                             -                             -                             -                             -                             -                             -                             -                             1.000                         -                             -                             -                             1.000                         -                             -                             -                             -                             
CMS_fake_stat_e_2018                                        shape               -                             -                             -                             -                             -                             -                             -                             -                             1.000                         -                             -                             -                             1.000                         -                             -                             -                             -                             
CMS_fake_m_2018                                             shape               -                             -                             -                             -                             -                             -                             -                             -                             1.000                         -                             -                             -                             1.000                         -                             -                             -                             -                             
CMS_fake_stat_m_2018                                        shape               -                             -                             -                             -                             -                             -                             -                             -                             1.000                         -                             -                             -                             1.000                         -                             -                             -                             -                             
CMS_btag_lf                                                 shape               1.000                         1.000                         1.000                         1.000                         1.000                         1.000                         1.000                         1.000                         -                             1.000                         1.000                         1.000                         -                             1.000                         1.000                         1.000                         1.000                         
CMS_btag_hf                                                 shape               1.000                         1.000                         1.000                         1.000                         1.000                         1.000                         1.000                         1.000                         -                             1.000                         1.000                         1.000                         -                             1.000                         1.000                         1.000                         1.000                         
CMS_btag_hfstats1_2018                                      shape               1.000                         1.000                         1.000                         1.000                         1.000                         1.000                         1.000                         1.000                         -                             1.000                         1.000                         1.000                         -                             1.000                         1.000                         1.000                         1.000                         
CMS_btag_hfstats2_2018                                      shape               1.000                         1.000                         1.000                         1.000                         1.000                         1.000                         1.000                         1.000                         -                             1.000                         1.000                         1.000                         -                             1.000                         1.000                         1.000                         1.000                         
CMS_btag_lfstats1_2018                                      shape               1.000                         1.000                         1.000                         1.000                         1.000                         1.000                         1.000                         1.000                         -                             1.000                         1.000                         1.000                         -                             1.000                         1.000                         1.000                         1.000                         
CMS_btag_lfstats2_2018                                      shape               1.000                         1.000                         1.000                         1.000                         1.000                         1.000                         1.000                         1.000                         -                             1.000                         1.000                         1.000                         -                             1.000                         1.000                         1.000                         1.000                         
CMS_btag_cferr1                                             shape               1.000                         1.000                         1.000                         1.000                         1.000                         1.000                         1.000                         1.000                         -                             1.000                         1.000                         1.000                         -                             1.000                         1.000                         1.000                         1.000                         
CMS_btag_cferr2                                             shape               1.000                         1.000                         1.000                         1.000                         1.000                         1.000                         1.000                         1.000                         -                             1.000                         1.000                         1.000                         -                             1.000                         1.000                         1.000                         1.000                         
CMS_eff_hwwtrigger_2018                                     shape               1.000                         1.000                         1.000                         1.000                         1.000                         1.000                         1.000                         1.000                         -                             1.000                         1.000                         1.000                         -                             1.000                         1.000                         1.000                         1.000                         
CMS_eff_e_2018                                              shape               1.000                         1.000                         1.000                         1.000                         1.000                         1.000                         1.000                         1.000                         -                             1.000                         1.000                         1.000                         -                             1.000                         1.000                         1.000                         1.000                         
CMS_scale_e_2018                                            shape               1.000                         1.000                         1.000                         1.000                         1.000                         1.000                         1.000                         1.000                         -                             1.000                         1.000                         1.000                         -                             1.000                         1.000                         1.000                         1.000                         
CMS_eff_m_2018                                              shape               1.000                         1.000                         1.000                         1.000                         1.000                         1.000                         1.000                         1.000                         -                             1.000                         1.000                         1.000                         -                             1.000                         1.000                         1.000                         1.000                         
CMS_scale_m_2018                                            shape               1.000                         1.000                         1.000                         1.000                         1.000                         1.000                         1.000                         1.000                         -                             1.000                         1.000                         1.000                         -                             1.000                         1.000                         1.000                         1.000                         
CMS_scale_JESAbsolute                                       shape               1.000                         1.000                         1.000                         1.000                         1.000                         1.000                         1.000                         1.000                         -                             1.000                         1.000                         1.000                         -                             1.000                         1.000                         1.000                         1.000                         
CMS_scale_JESAbsolute_2018                                  shape               1.000                         1.000                         1.000                         1.000                         1.000                         1.000                         1.000                         1.000                         -                             1.000                         1.000                         1.000                         -                             1.000                         1.000                         1.000                         1.000                         
CMS_scale_JESBBEC1                                          shape               1.000                         1.000                         1.000                         1.000                         1.000                         1.000                         1.000                         1.000                         -                             1.000                         1.000                         1.000                         -                             1.000                         1.000                         1.000                         1.000                         
CMS_scale_JESBBEC1_2018                                     shape               1.000                         1.000                         1.000                         1.000                         1.000                         1.000                         1.000                         1.000                         -                             1.000                         1.000                         1.000                         -                             1.000                         1.000                         1.000                         1.000                         
CMS_scale_JESEC2                                            shape               1.000                         1.000                         1.000                         1.000                         1.000                         1.000                         1.000                         1.000                         -                             1.000                         1.000                         1.000                         -                             1.000                         1.000                         1.000                         1.000                         
CMS_scale_JESEC2_2018                                       shape               1.000                         1.000                         1.000                         1.000                         1.000                         1.000                         1.000                         1.000                         -                             1.000                         1.000                         1.000                         -                             1.000                         1.000                         1.000                         1.000                         
CMS_scale_JESFlavorQCD                                      shape               1.000                         1.000                         1.000                         1.000                         1.000                         1.000                         1.000                         1.000                         -                             1.000                         1.000                         1.000                         -                             1.000                         1.000                         1.000                         1.000                         
CMS_scale_JESHF                                             shape               1.000                         1.000                         1.000                         1.000                         1.000                         1.000                         1.000                         1.000                         -                             1.000                         1.000                         1.000                         -                             1.000                         1.000                         1.000                         1.000                         
CMS_scale_JESHF_2018                                        shape               1.000                         1.000                         1.000                         1.000                         1.000                         1.000                         1.000                         1.000                         -                             1.000                         1.000                         1.000                         -                             1.000                         1.000                         1.000                         1.000                         
CMS_scale_JESRelativeBal                                    shape               1.000                         1.000                         1.000                         1.000                         1.000                         1.000                         1.000                         1.000                         -                             1.000                         1.000                         1.000                         -                             1.000                         1.000                         1.000                         1.000                         
CMS_scale_JESRelativeSample_2018                            shape               1.000                         1.000                         1.000                         1.000                         1.000                         1.000                         1.000                         1.000                         -                             1.000                         1.000                         1.000                         -                             1.000                         1.000                         1.000                         1.000                         
CMS_res_j_2018                                              shape               1.000                         1.000                         1.000                         1.000                         1.000                         1.000                         1.000                         1.000                         -                             1.000                         1.000                         1.000                         -                             1.000                         1.000                         1.000                         1.000                         
CMS_scale_met_2018                                          shape               1.000                         1.000                         1.000                         1.000                         1.000                         1.000                         1.000                         1.000                         -                             1.000                         1.000                         1.000                         -                             1.000                         1.000                         1.000                         1.000                         
CMS_PU_2018                                                 shape               1.000                         1.000                         1.000                         1.000                         1.000                         1.000                         1.000                         1.000                         -                             1.000                         1.000                         1.000                         -                             1.000                         1.000                         1.000                         1.000                         
CMS_PUID_2018                                               shape               1.000                         1.000                         1.000                         1.000                         1.000                         1.000                         1.000                         1.000                         -                             1.000                         1.000                         1.000                         -                             1.000                         1.000                         1.000                         1.000                         
PS_ISR                                                      shape               -                             -                             -                             -                             -                             -                             1.000                         1.000                         -                             1.000                         1.000                         1.000                         -                             1.000                         1.000                         -                             -                             
PS_ISR                                                      shape               1.000                         1.000                         1.000                         1.000                         1.000                         1.000                         -                             -                             -                             -                             -                             -                             -                             -                             -                             1.000                         1.000                         
PS_FSR                                                      shape               -                             -                             -                             -                             -                             -                             1.000                         1.000                         -                             1.000                         1.000                         1.000                         -                             1.000                         1.000                         -                             -                             
PS_FSR                                                      shape               1.000                         1.000                         1.000                         1.000                         1.000                         1.000                         -                             -                             -                             -                             -                             -                             -                             -                             -                             1.000                         1.000                         
UE_CP5                                                      lnN                 -                             -                             -                             -                             -                             -                             1.015                         1.015                         -                             1.015                         1.015                         1.015                         -                             1.015                         1.015                         -                             -                             
singleTopToTTbar                                            shape               -                             -                             -                             -                             -                             -                             -                             -                             -                             -                             -                             1.000                         -                             -                             -                             -                             -                             
CMS_hww_WgStarScale                                         lnN                 -                             -                             -                             -                             -                             -                             -                             -                             -                             -                             -                             -                             -                             -                             -                             -                             -                             
CMS_hww_VZScale                                             lnN                 -                             -                             -                             -                             -                             -                             -                             -                             -                             1.16                          -                             -                             -                             -                             -                             -                             -                             
pdf_Higgs                                                   lnN                 -                             -                             -                             -                             -                             -                             -                             -                             -                             -                             -                             -                             -                             1.029                         -                             -                             -                             
pdf_qqbar                                                   lnN                 -                             -                             -                             -                             -                             -                             -                             -                             -                             1.04                          -                             -                             -                             -                             1.04                          -                             -                             
pdf_Higgs_ACCEPT                                            lnN                 -                             -                             -                             -                             -                             -                             -                             -                             -                             -                             -                             -                             -                             1.005                         -                             -                             -                             
pdf_qqbar_ACCEPT                                            lnN                 -                             -                             -                             -                             -                             -                             -                             -                             -                             1.001                         -                             -                             -                             -                             -                             -                             -                             
CMS_hww_pdf_WW                                              shape               1.000                         -                             -                             -                             1.000                         1.000                         -                             -                             -                             -                             -                             -                             -                             -                             -                             -                             1.000                         
QCDscale_V                                                  shape               -                             -                             -                             -                             -                             -                             -                             1.000                         -                             -                             -                             -                             -                             -                             -                             -                             -                             
QCDscale_VV                                                 shape               -                             -                             -                             -                             -                             -                             -                             -                             -                             1.000                         -                             -                             -                             -                             1.000                         -                             -                             
QCDscale_WW                                                 shape               1.000                         -                             -                             -                             1.000                         1.000                         -                             -                             -                             -                             -                             -                             -                             -                             -                             -                             1.000                         
QCDscale_top_2j                                             shape               -                             -                             -                             -                             -                             -                             -                             -                             -                             -                             -                             1.000                         -                             -                             -                             -                             -                             
QCDscale_ggVV                                               lnN                 -                             1.15                          1.15                          1.15                          -                             -                             -                             -                             -                             -                             -                             -                             -                             -                             -                             1.15                          -                             
CMS_hww_WWresum                                             shape               1.000                         -                             -                             -                             1.000                         1.000                         -                             -                             -                             -                             -                             -                             -                             -                             -                             -                             1.000                         
CMS_hww_WWqscale                                            shape               1.000                         -                             -                             -                             1.000                         1.000                         -                             -                             -                             -                             -                             -                             -                             -                             -                             -                             1.000                         
QCDscale_Higgs                                              lnN                 -                             -                             -                             -                             -                             -                             -                             -                             -                             -                             -                             -                             -                             0.944/1.041                   -                             -                             -                             
QCDscale_WWewk                                              lnN                 -                             -                             -                             -                             -                             -                             1.11                          -                             -                             -                             -                             -                             -                             -                             -                             -                             -                             
QCDscale_Higgs_ACCEPT                                       lnN                 -                             -                             -                             -                             -                             -                             -                             -                             -                             -                             -                             -                             -                             1.010                         -                             -                             -                             
* autoMCStats 10  0
CMS_hww_Topnorm_2j                                          rateParam                ww2l2v_13TeV_sr_2j_B10        top                      1.0000                        
----------------------------------------------------------------------------------------------------

