## Shape input card
imax 1 number of channels
jmax * number of background
kmax * number of nuisance parameters
----------------------------------------------------------------------------------------------------
bin         ww2l2v_13TeV_top_0j
observation 1556
shapes  *           * shapes/histos_ww2l2v_13TeV_top_0j.root     histo_$PROCESS histo_$PROCESS_$SYSTEMATIC
shapes  data_obs           * shapes/histos_ww2l2v_13TeV_top_0j.root     histo_Data
bin                                                                             ww2l2v_13TeV_top_0j           ww2l2v_13TeV_top_0j           ww2l2v_13TeV_top_0j           ww2l2v_13TeV_top_0j           ww2l2v_13TeV_top_0j           ww2l2v_13TeV_top_0j           ww2l2v_13TeV_top_0j           ww2l2v_13TeV_top_0j           ww2l2v_13TeV_top_0j           ww2l2v_13TeV_top_0j           ww2l2v_13TeV_top_0j           ww2l2v_13TeV_top_0j           ww2l2v_13TeV_top_0j           ww2l2v_13TeV_top_0j           
process                                                                         ggWW_B0                       WW_B0                         Fake_mm                       WWewk                         Vg                            VVV                           top                           Higgs                         Fake_ee                       ZZ                            DY                            WW_nonfid                     WZ                            ggWW_nonfid                   
process                                                                         0                             -1                            1                             2                             3                             4                             5                             6                             7                             8                             9                             10                            11                            12                            
rate                                                                            3.8925                        35.0619                       10.8631                       0.3360                        4.2748                        0.4490                        1369.4358                     0.5605                        18.1953                       1.2636                        91.8481                       2.4786                        6.6296                        0.2718                        
----------------------------------------------------------------------------------------------------
lumi_13TeV_2018                                             lnN                 1.015                         1.015                         -                             1.015                         1.015                         1.015                         -                             1.015                         -                             1.015                         1.015                         1.015                         1.015                         1.015                         
lumi_13TeV_correlated                                       lnN                 1.020                         1.020                         -                             1.020                         1.020                         1.020                         -                             1.020                         -                             1.020                         1.020                         1.020                         1.020                         1.020                         
lumi_13TeV_1718                                             lnN                 1.002                         1.002                         -                             1.002                         1.002                         1.002                         -                             1.002                         -                             1.002                         1.002                         1.002                         1.002                         1.002                         
DYestim_2018                                                lnN                 -                             -                             -                             -                             -                             -                             -                             -                             -                             -                             1.3                           -                             -                             -                             
CMS_fake_syst_ee                                            lnN                 -                             -                             -                             -                             -                             -                             -                             -                             1.3                           -                             -                             -                             -                             -                             
CMS_fake_syst_mm                                            lnN                 -                             -                             1.3                           -                             -                             -                             -                             -                             -                             -                             -                             -                             -                             -                             
CMS_fake_e_2018                                             shape               -                             -                             1.000                         -                             -                             -                             -                             -                             1.000                         -                             -                             -                             -                             -                             
CMS_fake_stat_e_2018                                        shape               -                             -                             1.000                         -                             -                             -                             -                             -                             1.000                         -                             -                             -                             -                             -                             
CMS_fake_m_2018                                             shape               -                             -                             1.000                         -                             -                             -                             -                             -                             1.000                         -                             -                             -                             -                             -                             
CMS_fake_stat_m_2018                                        shape               -                             -                             1.000                         -                             -                             -                             -                             -                             1.000                         -                             -                             -                             -                             -                             
CMS_btag_lf                                                 shape               1.000                         1.000                         -                             1.000                         1.000                         1.000                         1.000                         1.000                         -                             1.000                         1.000                         1.000                         1.000                         1.000                         
CMS_btag_hf                                                 shape               1.000                         1.000                         -                             1.000                         1.000                         1.000                         1.000                         1.000                         -                             1.000                         1.000                         1.000                         1.000                         1.000                         
CMS_btag_hfstats1_2018                                      shape               1.000                         1.000                         -                             1.000                         1.000                         1.000                         1.000                         1.000                         -                             1.000                         1.000                         1.000                         1.000                         1.000                         
CMS_btag_hfstats2_2018                                      shape               1.000                         1.000                         -                             1.000                         1.000                         1.000                         1.000                         1.000                         -                             1.000                         1.000                         1.000                         1.000                         1.000                         
CMS_btag_lfstats1_2018                                      shape               1.000                         1.000                         -                             1.000                         1.000                         1.000                         1.000                         1.000                         -                             1.000                         1.000                         1.000                         1.000                         1.000                         
CMS_btag_lfstats2_2018                                      shape               1.000                         1.000                         -                             1.000                         1.000                         1.000                         1.000                         1.000                         -                             1.000                         1.000                         1.000                         1.000                         1.000                         
CMS_btag_cferr1                                             shape               1.000                         1.000                         -                             1.000                         1.000                         1.000                         1.000                         1.000                         -                             1.000                         1.000                         1.000                         1.000                         1.000                         
CMS_btag_cferr2                                             shape               1.000                         1.000                         -                             1.000                         1.000                         1.000                         1.000                         1.000                         -                             1.000                         1.000                         1.000                         1.000                         1.000                         
CMS_eff_hwwtrigger_2018                                     shape               1.000                         1.000                         -                             1.000                         1.000                         1.000                         1.000                         1.000                         -                             1.000                         1.000                         1.000                         1.000                         1.000                         
CMS_eff_e_2018                                              shape               1.000                         1.000                         -                             1.000                         1.000                         1.000                         1.000                         1.000                         -                             1.000                         1.000                         1.000                         1.000                         1.000                         
CMS_scale_e_2018                                            shape               1.000                         1.000                         -                             1.000                         1.000                         1.000                         1.000                         1.000                         -                             1.000                         1.000                         1.000                         1.000                         1.000                         
CMS_eff_m_2018                                              shape               1.000                         1.000                         -                             1.000                         1.000                         1.000                         1.000                         1.000                         -                             1.000                         1.000                         1.000                         1.000                         1.000                         
CMS_scale_m_2018                                            shape               1.000                         1.000                         -                             1.000                         1.000                         1.000                         1.000                         1.000                         -                             1.000                         1.000                         1.000                         1.000                         1.000                         
CMS_scale_JESAbsolute                                       shape               1.000                         1.000                         -                             1.000                         1.000                         1.000                         1.000                         1.000                         -                             1.000                         1.000                         1.000                         1.000                         1.000                         
CMS_scale_JESAbsolute_2018                                  shape               1.000                         1.000                         -                             1.000                         1.000                         1.000                         1.000                         1.000                         -                             1.000                         1.000                         1.000                         1.000                         1.000                         
CMS_scale_JESBBEC1                                          shape               1.000                         1.000                         -                             1.000                         1.000                         1.000                         1.000                         1.000                         -                             1.000                         1.000                         1.000                         1.000                         1.000                         
CMS_scale_JESBBEC1_2018                                     shape               1.000                         1.000                         -                             1.000                         1.000                         1.000                         1.000                         1.000                         -                             1.000                         1.000                         1.000                         1.000                         1.000                         
CMS_scale_JESEC2                                            shape               1.000                         1.000                         -                             1.000                         1.000                         1.000                         1.000                         1.000                         -                             1.000                         1.000                         1.000                         1.000                         1.000                         
CMS_scale_JESEC2_2018                                       shape               1.000                         1.000                         -                             1.000                         1.000                         1.000                         1.000                         1.000                         -                             1.000                         1.000                         1.000                         1.000                         1.000                         
CMS_scale_JESFlavorQCD                                      shape               1.000                         1.000                         -                             1.000                         1.000                         1.000                         1.000                         1.000                         -                             1.000                         1.000                         1.000                         1.000                         1.000                         
CMS_scale_JESHF                                             shape               1.000                         1.000                         -                             1.000                         1.000                         1.000                         1.000                         1.000                         -                             1.000                         1.000                         1.000                         1.000                         1.000                         
CMS_scale_JESHF_2018                                        shape               1.000                         1.000                         -                             1.000                         1.000                         1.000                         1.000                         1.000                         -                             1.000                         1.000                         1.000                         1.000                         1.000                         
CMS_scale_JESRelativeBal                                    shape               1.000                         1.000                         -                             1.000                         1.000                         1.000                         1.000                         1.000                         -                             1.000                         1.000                         1.000                         1.000                         1.000                         
CMS_scale_JESRelativeSample_2018                            shape               1.000                         1.000                         -                             1.000                         1.000                         1.000                         1.000                         1.000                         -                             1.000                         1.000                         1.000                         1.000                         1.000                         
CMS_res_j_2018                                              shape               1.000                         1.000                         -                             1.000                         1.000                         1.000                         1.000                         1.000                         -                             1.000                         1.000                         1.000                         1.000                         1.000                         
CMS_scale_met_2018                                          shape               1.000                         1.000                         -                             1.000                         1.000                         1.000                         1.000                         1.000                         -                             1.000                         1.000                         1.000                         1.000                         1.000                         
CMS_PU_2018                                                 shape               1.000                         1.000                         -                             1.000                         1.000                         1.000                         1.000                         1.000                         -                             1.000                         1.000                         1.000                         1.000                         1.000                         
CMS_PUID_2018                                               shape               1.000                         1.000                         -                             1.000                         1.000                         1.000                         1.000                         1.000                         -                             1.000                         1.000                         1.000                         1.000                         1.000                         
PS_ISR                                                      shape               -                             -                             -                             1.000                         1.000                         1.000                         1.000                         1.000                         -                             1.000                         1.000                         -                             1.000                         -                             
PS_ISR                                                      shape               1.000                         1.000                         -                             -                             -                             -                             -                             -                             -                             -                             -                             1.000                         -                             1.000                         
PS_FSR                                                      shape               -                             -                             -                             1.000                         1.000                         1.000                         1.000                         1.000                         -                             1.000                         1.000                         -                             1.000                         -                             
PS_FSR                                                      shape               1.000                         1.000                         -                             -                             -                             -                             -                             -                             -                             -                             -                             1.000                         -                             1.000                         
UE_CP5                                                      lnN                 -                             -                             -                             1.015                         1.015                         1.015                         1.015                         1.015                         -                             1.015                         1.015                         -                             1.015                         -                             
singleTopToTTbar                                            shape               -                             -                             -                             -                             -                             -                             1.000                         -                             -                             -                             -                             -                             -                             -                             
CMS_hww_WgStarScale                                         lnN                 -                             -                             -                             -                             1.194                         -                             -                             -                             -                             -                             -                             -                             -                             -                             
pdf_Higgs                                                   lnN                 -                             -                             -                             -                             -                             -                             -                             1.027                         -                             -                             -                             -                             -                             -                             
pdf_qqbar                                                   lnN                 -                             -                             -                             -                             1.04                          -                             -                             -                             -                             1.04                          -                             -                             1.04                          -                             
pdf_Higgs_ACCEPT                                            lnN                 -                             -                             -                             -                             -                             -                             -                             1.005                         -                             -                             -                             -                             -                             -                             
pdf_qqbar_ACCEPT                                            lnN                 -                             -                             -                             -                             -                             -                             -                             -                             -                             -                             -                             -                             1.001                         -                             
CMS_hww_pdf_WW                                              shape               -                             1.000                         -                             -                             -                             -                             -                             -                             -                             -                             -                             1.000                         -                             -                             
QCDscale_V                                                  shape               -                             -                             -                             -                             -                             -                             -                             -                             -                             -                             1.000                         -                             -                             -                             
QCDscale_VV                                                 shape               -                             -                             -                             -                             1.000                         -                             -                             -                             -                             1.000                         -                             -                             1.000                         -                             
QCDscale_WW                                                 shape               -                             1.000                         -                             -                             -                             -                             -                             -                             -                             -                             -                             1.000                         -                             -                             
QCDscale_top_0j                                             shape               -                             -                             -                             -                             -                             -                             1.000                         -                             -                             -                             -                             -                             -                             -                             
QCDscale_ggVV                                               lnN                 1.15                          -                             -                             -                             -                             -                             -                             -                             -                             -                             -                             -                             -                             1.15                          
CMS_topPtRew                                                shape               -                             -                             -                             -                             -                             -                             1.000                         -                             -                             -                             -                             -                             -                             -                             
CMS_hww_CRSR_accept_top                                     lnN                 -                             -                             -                             -                             -                             -                             1.01                          -                             -                             -                             -                             -                             -                             -                             
QCDscale_Higgs                                              lnN                 -                             -                             -                             -                             -                             -                             -                             0.954/1.032                   -                             -                             -                             -                             -                             -                             
QCDscale_WWewk                                              lnN                 -                             -                             -                             1.11                          -                             -                             -                             -                             -                             -                             -                             -                             -                             -                             
QCDscale_Higgs_ACCEPT                                       lnN                 -                             -                             -                             -                             -                             -                             -                             1.011                         -                             -                             -                             -                             -                             -                             
* autoMCStats 10  0
CMS_hww_Topnorm_0j                                          rateParam                ww2l2v_13TeV_top_0j           top                      1.0000                        
----------------------------------------------------------------------------------------------------

