## Shape input card
imax 1 number of channels
jmax * number of background
kmax * number of nuisance parameters
----------------------------------------------------------------------------------------------------
bin         ww2l2v_13TeV_top_2j
observation 44025
shapes  *           * shapes/histos_ww2l2v_13TeV_top_2j.root     histo_$PROCESS histo_$PROCESS_$SYSTEMATIC
shapes  data_obs           * shapes/histos_ww2l2v_13TeV_top_2j.root     histo_Data
bin                                                                             ww2l2v_13TeV_top_2j           ww2l2v_13TeV_top_2j           ww2l2v_13TeV_top_2j           ww2l2v_13TeV_top_2j           ww2l2v_13TeV_top_2j           ww2l2v_13TeV_top_2j           ww2l2v_13TeV_top_2j           ww2l2v_13TeV_top_2j           ww2l2v_13TeV_top_2j           ww2l2v_13TeV_top_2j           ww2l2v_13TeV_top_2j           ww2l2v_13TeV_top_2j           ww2l2v_13TeV_top_2j           
process                                                                         ggWW_B0                       WW_B0                         Vg                            VVV                           top                           Higgs                         Fake_em                       ZZ                            DY                            WW_nonfid                     WZ                            ggWW_nonfid                   Fake_me                       
process                                                                         0                             -1                            2                             3                             4                             5                             6                             7                             8                             9                             10                            11                            12                            
rate                                                                            3.2871                        52.1491                       0.5760                        6.1940                        44935.5986                    24.2365                       395.0179                      0.5464                        57.0106                       10.5611                       11.0154                       0.5778                        441.2301                      
----------------------------------------------------------------------------------------------------
lumi_13TeV_2016                                             lnN                 1.010                         1.010                         1.010                         1.010                         -                             1.010                         -                             1.010                         1.010                         1.010                         1.010                         1.010                         -                             
lumi_13TeV_correlated                                       lnN                 1.006                         1.006                         1.006                         1.006                         -                             1.006                         -                             1.006                         1.006                         1.006                         1.006                         1.006                         -                             
CMS_fake_syst_em                                            lnN                 -                             -                             -                             -                             -                             -                             1.3                           -                             -                             -                             -                             -                             -                             
CMS_fake_syst_me                                            lnN                 -                             -                             -                             -                             -                             -                             -                             -                             -                             -                             -                             -                             1.3                           
CMS_fake_e_2016                                             shape               -                             -                             -                             -                             -                             -                             1.000                         -                             -                             -                             -                             -                             1.000                         
CMS_fake_stat_e_2016                                        shape               -                             -                             -                             -                             -                             -                             1.000                         -                             -                             -                             -                             -                             1.000                         
CMS_fake_m_2016                                             shape               -                             -                             -                             -                             -                             -                             1.000                         -                             -                             -                             -                             -                             1.000                         
CMS_fake_stat_m_2016                                        shape               -                             -                             -                             -                             -                             -                             1.000                         -                             -                             -                             -                             -                             1.000                         
CMS_btag_lf                                                 shape               1.000                         1.000                         1.000                         1.000                         1.000                         1.000                         -                             1.000                         1.000                         1.000                         1.000                         1.000                         -                             
CMS_btag_hf                                                 shape               1.000                         1.000                         1.000                         1.000                         1.000                         1.000                         -                             1.000                         1.000                         1.000                         1.000                         1.000                         -                             
CMS_btag_hfstats1_2016                                      shape               1.000                         1.000                         1.000                         1.000                         1.000                         1.000                         -                             1.000                         1.000                         1.000                         1.000                         1.000                         -                             
CMS_btag_hfstats2_2016                                      shape               1.000                         1.000                         1.000                         1.000                         1.000                         1.000                         -                             1.000                         1.000                         1.000                         1.000                         1.000                         -                             
CMS_btag_lfstats1_2016                                      shape               1.000                         1.000                         1.000                         1.000                         1.000                         1.000                         -                             1.000                         1.000                         1.000                         1.000                         1.000                         -                             
CMS_btag_lfstats2_2016                                      shape               1.000                         1.000                         1.000                         1.000                         1.000                         1.000                         -                             1.000                         1.000                         1.000                         1.000                         1.000                         -                             
CMS_btag_cferr1                                             shape               1.000                         1.000                         1.000                         1.000                         1.000                         1.000                         -                             1.000                         1.000                         1.000                         1.000                         1.000                         -                             
CMS_btag_cferr2                                             shape               1.000                         1.000                         1.000                         1.000                         1.000                         1.000                         -                             1.000                         1.000                         1.000                         1.000                         1.000                         -                             
CMS_eff_hwwtrigger_2016                                     shape               1.000                         1.000                         1.000                         1.000                         1.000                         1.000                         -                             1.000                         1.000                         1.000                         1.000                         1.000                         -                             
CMS_eff_prefiring_2016                                      shape               1.000                         1.000                         1.000                         1.000                         1.000                         1.000                         -                             1.000                         1.000                         1.000                         1.000                         1.000                         -                             
CMS_eff_e_2016                                              shape               1.000                         1.000                         1.000                         1.000                         1.000                         1.000                         -                             1.000                         1.000                         1.000                         1.000                         1.000                         -                             
CMS_scale_e_2016                                            shape               1.000                         1.000                         1.000                         1.000                         1.000                         1.000                         -                             1.000                         1.000                         1.000                         1.000                         1.000                         -                             
CMS_eff_m_2016                                              shape               1.000                         1.000                         1.000                         1.000                         1.000                         1.000                         -                             1.000                         1.000                         1.000                         1.000                         1.000                         -                             
CMS_scale_m_2016                                            shape               1.000                         1.000                         1.000                         1.000                         1.000                         1.000                         -                             1.000                         1.000                         1.000                         1.000                         1.000                         -                             
CMS_scale_JESAbsolute                                       shape               1.000                         1.000                         1.000                         1.000                         1.000                         1.000                         -                             1.000                         1.000                         1.000                         1.000                         1.000                         -                             
CMS_scale_JESAbsolute_2016                                  shape               1.000                         1.000                         1.000                         1.000                         1.000                         1.000                         -                             1.000                         1.000                         1.000                         1.000                         1.000                         -                             
CMS_scale_JESBBEC1                                          shape               1.000                         1.000                         1.000                         1.000                         1.000                         1.000                         -                             1.000                         1.000                         1.000                         1.000                         1.000                         -                             
CMS_scale_JESBBEC1_2016                                     shape               1.000                         1.000                         1.000                         1.000                         1.000                         1.000                         -                             1.000                         1.000                         1.000                         1.000                         1.000                         -                             
CMS_scale_JESEC2                                            shape               1.000                         1.000                         1.000                         1.000                         1.000                         1.000                         -                             1.000                         1.000                         1.000                         1.000                         1.000                         -                             
CMS_scale_JESEC2_2016                                       shape               1.000                         1.000                         1.000                         1.000                         1.000                         1.000                         -                             1.000                         1.000                         1.000                         1.000                         1.000                         -                             
CMS_scale_JESFlavorQCD                                      shape               1.000                         1.000                         1.000                         1.000                         1.000                         1.000                         -                             1.000                         1.000                         1.000                         1.000                         1.000                         -                             
CMS_scale_JESHF                                             shape               1.000                         1.000                         1.000                         1.000                         1.000                         1.000                         -                             1.000                         1.000                         1.000                         1.000                         1.000                         -                             
CMS_scale_JESHF_2016                                        shape               1.000                         1.000                         1.000                         1.000                         1.000                         1.000                         -                             1.000                         1.000                         1.000                         1.000                         1.000                         -                             
CMS_scale_JESRelativeBal                                    shape               1.000                         1.000                         1.000                         1.000                         1.000                         1.000                         -                             1.000                         1.000                         1.000                         1.000                         1.000                         -                             
CMS_scale_JESRelativeSample_2016                            shape               1.000                         1.000                         1.000                         1.000                         1.000                         1.000                         -                             1.000                         1.000                         1.000                         1.000                         1.000                         -                             
CMS_res_j_2016                                              shape               1.000                         1.000                         1.000                         1.000                         1.000                         1.000                         -                             1.000                         1.000                         1.000                         1.000                         1.000                         -                             
CMS_scale_met_2016                                          shape               1.000                         1.000                         1.000                         1.000                         1.000                         1.000                         -                             1.000                         1.000                         1.000                         1.000                         1.000                         -                             
CMS_PUID_2016                                               shape               1.000                         1.000                         1.000                         1.000                         1.000                         1.000                         -                             1.000                         1.000                         1.000                         1.000                         1.000                         -                             
CMS_PU_2016                                                 shape               1.000                         1.000                         1.000                         1.000                         1.000                         1.000                         -                             1.000                         1.000                         1.000                         1.000                         1.000                         -                             
PS_ISR                                                      shape               -                             -                             1.000                         1.000                         1.000                         1.000                         -                             1.000                         1.000                         -                             1.000                         -                             -                             
PS_ISR                                                      shape               1.000                         1.000                         -                             -                             -                             -                             -                             -                             -                             1.000                         -                             1.000                         -                             
PS_FSR                                                      shape               -                             -                             1.000                         1.000                         1.000                         1.000                         -                             1.000                         1.000                         -                             1.000                         -                             -                             
PS_FSR                                                      shape               1.000                         1.000                         -                             -                             -                             -                             -                             -                             -                             1.000                         -                             1.000                         -                             
UE_CP5                                                      lnN                 -                             -                             1.015                         1.015                         1.015                         1.015                         -                             1.015                         1.015                         -                             1.015                         -                             -                             
singleTopToTTbar                                            shape               -                             -                             -                             -                             1.000                         -                             -                             -                             -                             -                             -                             -                             -                             
CMS_hww_WgStarScale                                         lnN                 -                             -                             1.079                         -                             -                             -                             -                             -                             -                             -                             -                             -                             -                             
pdf_Higgs                                                   lnN                 -                             -                             -                             -                             -                             1.034                         -                             -                             -                             -                             -                             -                             -                             
pdf_qqbar                                                   lnN                 -                             -                             1.04                          -                             -                             -                             -                             1.04                          -                             -                             1.04                          -                             -                             
pdf_Higgs_ACCEPT                                            lnN                 -                             -                             -                             -                             -                             1.001                         -                             -                             -                             -                             -                             -                             -                             
pdf_qqbar_ACCEPT                                            lnN                 -                             -                             -                             -                             -                             -                             -                             1.001                         -                             -                             1.001                         -                             -                             
CMS_hww_pdf_WW                                              shape               -                             1.000                         -                             -                             -                             -                             -                             -                             -                             1.000                         -                             -                             -                             
QCDscale_V                                                  shape               -                             -                             -                             -                             -                             -                             -                             -                             1.000                         -                             -                             -                             -                             
QCDscale_VV                                                 shape               -                             -                             1.000                         -                             -                             -                             -                             1.000                         -                             -                             1.000                         -                             -                             
QCDscale_WW                                                 shape               -                             1.000                         -                             -                             -                             -                             -                             -                             -                             1.000                         -                             -                             -                             
QCDscale_top_2j                                             shape               -                             -                             -                             -                             1.000                         -                             -                             -                             -                             -                             -                             -                             -                             
CMS_hww_WWresum                                             shape               -                             1.000                         -                             -                             -                             -                             -                             -                             -                             1.000                         -                             -                             -                             
CMS_hww_WWqscale                                            shape               -                             1.000                         -                             -                             -                             -                             -                             -                             -                             1.000                         -                             -                             -                             
QCDscale_Higgs                                              lnN                 -                             -                             -                             -                             -                             0.912/1.059                   -                             -                             -                             -                             -                             -                             -                             
QCDscale_WWewk                                              lnN                 -                             -                             -                             -                             -                             -                             -                             -                             -                             -                             -                             -                             -                             
QCDscale_Higgs_ACCEPT                                       lnN                 -                             -                             -                             -                             -                             1.002                         -                             -                             -                             -                             -                             -                             -                             
CMS_hww_CRSR_accept_top                                     lnN                 -                             -                             -                             -                             1.01                          -                             -                             -                             -                             -                             -                             -                             -                             
* autoMCStats 10  0
CMS_hww_Topnorm_2j                                          rateParam                ww2l2v_13TeV_top_2j           top                      1.0000                        
----------------------------------------------------------------------------------------------------

