## Shape input card
imax 1 number of channels
jmax * number of background
kmax * number of nuisance parameters
----------------------------------------------------------------------------------------------------
bin         ww2l2v_13TeV_top_1j
observation 29424
shapes  *           * shapes/histos_ww2l2v_13TeV_top_1j.root     histo_$PROCESS histo_$PROCESS_$SYSTEMATIC
shapes  data_obs           * shapes/histos_ww2l2v_13TeV_top_1j.root     histo_Data
bin                                                                             ww2l2v_13TeV_top_1j           ww2l2v_13TeV_top_1j           ww2l2v_13TeV_top_1j           ww2l2v_13TeV_top_1j           ww2l2v_13TeV_top_1j           ww2l2v_13TeV_top_1j           ww2l2v_13TeV_top_1j           ww2l2v_13TeV_top_1j           ww2l2v_13TeV_top_1j           ww2l2v_13TeV_top_1j           ww2l2v_13TeV_top_1j           ww2l2v_13TeV_top_1j           ww2l2v_13TeV_top_1j           ww2l2v_13TeV_top_1j           ww2l2v_13TeV_top_1j           ww2l2v_13TeV_top_1j           ww2l2v_13TeV_top_1j           ww2l2v_13TeV_top_1j           ww2l2v_13TeV_top_1j           
process                                                                         ggWW_B2                       ggWW_B3                       ggWW_B0                       ggWW_B1                       WW_B2                         WW_B0                         WW_B1                         WWewk                         DY                            Fake_em                       WZ                            Fake_me                       VVV                           top                           ggWW_nonfid                   Higgs                         ZZ                            Vg                            WW_nonfid                     
process                                                                         0                             -1                            -2                            -3                            -4                            -6                            -7                            1                             2                             3                             4                             5                             6                             7                             8                             9                             10                            11                            12                            
rate                                                                            0.4112                        0.0111                        1.5105                        6.3749                        4.2327                        16.6419                       70.2655                       4.8427                        88.4008                       294.9597                      10.5449                       293.7189                      2.2966                        30173.0122                    1.3324                        4.7463                        1.0487                        0.5403                        15.7735                       
----------------------------------------------------------------------------------------------------
lumi_13TeV_2017                                             lnN                 1.020                         1.020                         1.020                         1.020                         1.020                         1.020                         1.020                         1.020                         1.020                         -                             1.020                         -                             1.020                         -                             1.020                         1.020                         1.020                         1.020                         1.020                         
lumi_13TeV_correlated                                       lnN                 1.009                         1.009                         1.009                         1.009                         1.009                         1.009                         1.009                         1.009                         1.009                         -                             1.009                         -                             1.009                         -                             1.009                         1.009                         1.009                         1.009                         1.009                         
lumi_13TeV_1718                                             lnN                 1.006                         1.006                         1.006                         1.006                         1.006                         1.006                         1.006                         1.006                         1.006                         -                             1.006                         -                             1.006                         -                             1.006                         1.006                         1.006                         1.006                         1.006                         
CMS_fake_syst_em                                            lnN                 -                             -                             -                             -                             -                             -                             -                             -                             -                             1.3                           -                             -                             -                             -                             -                             -                             -                             -                             -                             
CMS_fake_syst_me                                            lnN                 -                             -                             -                             -                             -                             -                             -                             -                             -                             -                             -                             1.3                           -                             -                             -                             -                             -                             -                             -                             
CMS_fake_e_2017                                             shape               -                             -                             -                             -                             -                             -                             -                             -                             -                             1.000                         -                             1.000                         -                             -                             -                             -                             -                             -                             -                             
CMS_fake_stat_e_2017                                        shape               -                             -                             -                             -                             -                             -                             -                             -                             -                             1.000                         -                             1.000                         -                             -                             -                             -                             -                             -                             -                             
CMS_fake_m_2017                                             shape               -                             -                             -                             -                             -                             -                             -                             -                             -                             1.000                         -                             1.000                         -                             -                             -                             -                             -                             -                             -                             
CMS_fake_stat_m_2017                                        shape               -                             -                             -                             -                             -                             -                             -                             -                             -                             1.000                         -                             1.000                         -                             -                             -                             -                             -                             -                             -                             
CMS_btag_lf                                                 shape               1.000                         1.000                         1.000                         1.000                         1.000                         1.000                         1.000                         1.000                         1.000                         -                             1.000                         -                             1.000                         1.000                         1.000                         1.000                         1.000                         1.000                         1.000                         
CMS_btag_hf                                                 shape               1.000                         1.000                         1.000                         1.000                         1.000                         1.000                         1.000                         1.000                         1.000                         -                             1.000                         -                             1.000                         1.000                         1.000                         1.000                         1.000                         1.000                         1.000                         
CMS_btag_hfstats1_2017                                      shape               1.000                         1.000                         1.000                         1.000                         1.000                         1.000                         1.000                         1.000                         1.000                         -                             1.000                         -                             1.000                         1.000                         1.000                         1.000                         1.000                         1.000                         1.000                         
CMS_btag_hfstats2_2017                                      shape               1.000                         1.000                         1.000                         1.000                         1.000                         1.000                         1.000                         1.000                         1.000                         -                             1.000                         -                             1.000                         1.000                         1.000                         1.000                         1.000                         1.000                         1.000                         
CMS_btag_lfstats1_2017                                      shape               1.000                         1.000                         1.000                         1.000                         1.000                         1.000                         1.000                         1.000                         1.000                         -                             1.000                         -                             1.000                         1.000                         1.000                         1.000                         1.000                         1.000                         1.000                         
CMS_btag_lfstats2_2017                                      shape               1.000                         1.000                         1.000                         1.000                         1.000                         1.000                         1.000                         1.000                         1.000                         -                             1.000                         -                             1.000                         1.000                         1.000                         1.000                         1.000                         1.000                         1.000                         
CMS_btag_cferr1                                             shape               1.000                         1.000                         1.000                         1.000                         1.000                         1.000                         1.000                         1.000                         1.000                         -                             1.000                         -                             1.000                         1.000                         1.000                         1.000                         1.000                         1.000                         1.000                         
CMS_btag_cferr2                                             shape               1.000                         1.000                         1.000                         1.000                         1.000                         1.000                         1.000                         1.000                         1.000                         -                             1.000                         -                             1.000                         1.000                         1.000                         1.000                         1.000                         1.000                         1.000                         
CMS_eff_hwwtrigger_2017                                     shape               1.000                         1.000                         1.000                         1.000                         1.000                         1.000                         1.000                         1.000                         1.000                         -                             1.000                         -                             1.000                         1.000                         1.000                         1.000                         1.000                         1.000                         1.000                         
CMS_eff_prefiring_2017                                      shape               1.000                         1.000                         1.000                         1.000                         1.000                         1.000                         1.000                         1.000                         1.000                         -                             1.000                         -                             1.000                         1.000                         1.000                         1.000                         1.000                         1.000                         1.000                         
CMS_eff_e_2017                                              shape               1.000                         1.000                         1.000                         1.000                         1.000                         1.000                         1.000                         1.000                         1.000                         -                             1.000                         -                             1.000                         1.000                         1.000                         1.000                         1.000                         1.000                         1.000                         
CMS_scale_e_2017                                            shape               -                             -                             -                             -                             1.000                         1.000                         1.000                         1.000                         1.000                         -                             1.000                         -                             1.000                         1.000                         -                             1.000                         1.000                         1.000                         1.000                         
CMS_eff_m_2017                                              shape               1.000                         1.000                         1.000                         1.000                         1.000                         1.000                         1.000                         1.000                         1.000                         -                             1.000                         -                             1.000                         1.000                         1.000                         1.000                         1.000                         1.000                         1.000                         
CMS_scale_m_2017                                            shape               -                             -                             -                             -                             1.000                         1.000                         1.000                         1.000                         1.000                         -                             1.000                         -                             1.000                         1.000                         -                             1.000                         1.000                         1.000                         1.000                         
CMS_scale_JESAbsolute                                       shape               1.000                         1.000                         1.000                         1.000                         1.000                         1.000                         1.000                         1.000                         1.000                         -                             1.000                         -                             1.000                         1.000                         1.000                         1.000                         1.000                         1.000                         1.000                         
CMS_scale_JESAbsolute_2017                                  shape               1.000                         1.000                         1.000                         1.000                         1.000                         1.000                         1.000                         1.000                         1.000                         -                             1.000                         -                             1.000                         1.000                         1.000                         1.000                         1.000                         1.000                         1.000                         
CMS_scale_JESBBEC1                                          shape               1.000                         1.000                         1.000                         1.000                         1.000                         1.000                         1.000                         1.000                         1.000                         -                             1.000                         -                             1.000                         1.000                         1.000                         1.000                         1.000                         1.000                         1.000                         
CMS_scale_JESBBEC1_2017                                     shape               1.000                         1.000                         1.000                         1.000                         1.000                         1.000                         1.000                         1.000                         1.000                         -                             1.000                         -                             1.000                         1.000                         1.000                         1.000                         1.000                         1.000                         1.000                         
CMS_scale_JESEC2                                            shape               1.000                         1.000                         1.000                         1.000                         1.000                         1.000                         1.000                         1.000                         1.000                         -                             1.000                         -                             1.000                         1.000                         1.000                         1.000                         1.000                         1.000                         1.000                         
CMS_scale_JESEC2_2017                                       shape               1.000                         1.000                         1.000                         1.000                         1.000                         1.000                         1.000                         1.000                         1.000                         -                             1.000                         -                             1.000                         1.000                         1.000                         1.000                         1.000                         1.000                         1.000                         
CMS_scale_JESFlavorQCD                                      shape               1.000                         1.000                         1.000                         1.000                         1.000                         1.000                         1.000                         1.000                         1.000                         -                             1.000                         -                             1.000                         1.000                         1.000                         1.000                         1.000                         1.000                         1.000                         
CMS_scale_JESHF                                             shape               1.000                         1.000                         1.000                         1.000                         1.000                         1.000                         1.000                         1.000                         1.000                         -                             1.000                         -                             1.000                         1.000                         1.000                         1.000                         1.000                         1.000                         1.000                         
CMS_scale_JESHF_2017                                        shape               1.000                         1.000                         1.000                         1.000                         1.000                         1.000                         1.000                         1.000                         1.000                         -                             1.000                         -                             1.000                         1.000                         1.000                         1.000                         1.000                         1.000                         1.000                         
CMS_scale_JESRelativeBal                                    shape               1.000                         1.000                         1.000                         1.000                         1.000                         1.000                         1.000                         1.000                         1.000                         -                             1.000                         -                             1.000                         1.000                         1.000                         1.000                         1.000                         1.000                         1.000                         
CMS_scale_JESRelativeSample_2017                            shape               1.000                         1.000                         1.000                         1.000                         1.000                         1.000                         1.000                         1.000                         1.000                         -                             1.000                         -                             1.000                         1.000                         1.000                         1.000                         1.000                         1.000                         1.000                         
CMS_res_j_2017                                              shape               -                             -                             -                             -                             1.000                         1.000                         1.000                         1.000                         1.000                         -                             1.000                         -                             1.000                         1.000                         -                             1.000                         1.000                         1.000                         1.000                         
CMS_scale_met_2017                                          shape               1.000                         1.000                         1.000                         1.000                         1.000                         1.000                         1.000                         1.000                         1.000                         -                             1.000                         -                             1.000                         1.000                         1.000                         1.000                         1.000                         1.000                         1.000                         
CMS_PUID_2017                                               shape               1.000                         1.000                         1.000                         1.000                         1.000                         1.000                         1.000                         1.000                         1.000                         -                             1.000                         -                             1.000                         1.000                         1.000                         1.000                         1.000                         1.000                         1.000                         
CMS_PU_2017                                                 shape               1.000                         1.000                         1.000                         1.000                         1.000                         1.000                         1.000                         1.000                         1.000                         -                             1.000                         -                             1.000                         1.000                         1.000                         1.000                         1.000                         1.000                         1.000                         
PS_ISR                                                      shape               -                             -                             -                             -                             -                             -                             -                             1.000                         1.000                         -                             1.000                         -                             1.000                         1.000                         -                             1.000                         1.000                         1.000                         -                             
PS_ISR                                                      shape               1.000                         1.000                         1.000                         1.000                         1.000                         1.000                         1.000                         -                             -                             -                             -                             -                             -                             -                             1.000                         -                             -                             -                             1.000                         
PS_FSR                                                      shape               -                             -                             -                             -                             -                             -                             -                             1.000                         1.000                         -                             1.000                         -                             1.000                         1.000                         -                             1.000                         1.000                         1.000                         -                             
PS_FSR                                                      shape               1.000                         1.000                         1.000                         1.000                         1.000                         1.000                         1.000                         -                             -                             -                             -                             -                             -                             -                             1.000                         -                             -                             -                             1.000                         
UE_CP5                                                      lnN                 -                             -                             -                             -                             -                             -                             -                             1.015                         1.015                         -                             1.015                         -                             1.015                         1.015                         -                             1.015                         1.015                         1.015                         -                             
singleTopToTTbar                                            shape               -                             -                             -                             -                             -                             -                             -                             -                             -                             -                             -                             -                             -                             1.000                         -                             -                             -                             -                             -                             
CMS_hww_WgStarScale                                         lnN                 -                             -                             -                             -                             -                             -                             -                             -                             -                             -                             -                             -                             -                             -                             -                             -                             -                             1.023                         -                             
pdf_Higgs                                                   lnN                 -                             -                             -                             -                             -                             -                             -                             -                             -                             -                             -                             -                             -                             -                             -                             1.029                         -                             -                             -                             
pdf_qqbar                                                   lnN                 -                             -                             -                             -                             -                             -                             -                             -                             -                             -                             1.04                          -                             -                             -                             -                             -                             1.04                          1.04                          -                             
pdf_Higgs_ACCEPT                                            lnN                 -                             -                             -                             -                             -                             -                             -                             -                             -                             -                             -                             -                             -                             -                             -                             1.004                         -                             -                             -                             
pdf_qqbar_ACCEPT                                            lnN                 -                             -                             -                             -                             -                             -                             -                             -                             -                             -                             1.001                         -                             -                             -                             -                             -                             1.001                         -                             -                             
CMS_hww_pdf_WW                                              shape               -                             -                             -                             -                             1.000                         1.000                         1.000                         -                             -                             -                             -                             -                             -                             -                             -                             -                             -                             -                             1.000                         
QCDscale_V                                                  shape               -                             -                             -                             -                             -                             -                             -                             -                             1.000                         -                             -                             -                             -                             -                             -                             -                             -                             -                             -                             
QCDscale_VV                                                 shape               -                             -                             -                             -                             -                             -                             -                             -                             -                             -                             1.000                         -                             -                             -                             -                             -                             1.000                         1.000                         -                             
QCDscale_WW                                                 shape               -                             -                             -                             -                             1.000                         1.000                         1.000                         -                             -                             -                             -                             -                             -                             -                             -                             -                             -                             -                             1.000                         
QCDscale_top_1j                                             shape               -                             -                             -                             -                             -                             -                             -                             -                             -                             -                             -                             -                             -                             1.000                         -                             -                             -                             -                             -                             
CMS_hww_WWresum                                             shape               -                             -                             -                             -                             1.000                         1.000                         1.000                         -                             -                             -                             -                             -                             -                             -                             -                             -                             -                             -                             1.000                         
CMS_hww_WWqscale                                            shape               -                             -                             -                             -                             1.000                         1.000                         1.000                         -                             -                             -                             -                             -                             -                             -                             -                             -                             -                             -                             1.000                         
QCDscale_Higgs                                              lnN                 -                             -                             -                             -                             -                             -                             -                             -                             -                             -                             -                             -                             -                             -                             -                             0.949/1.035                   -                             -                             -                             
QCDscale_WWewk                                              lnN                 -                             -                             -                             -                             -                             -                             -                             1.11                          -                             -                             -                             -                             -                             -                             -                             -                             -                             -                             -                             
QCDscale_Higgs_ACCEPT                                       lnN                 -                             -                             -                             -                             -                             -                             -                             -                             -                             -                             -                             -                             -                             -                             -                             1.009                         -                             -                             -                             
CMS_hww_CRSR_accept_top                                     lnN                 -                             -                             -                             -                             -                             -                             -                             -                             -                             -                             -                             -                             -                             1.01                          -                             -                             -                             -                             -                             
* autoMCStats 10  0
CMS_hww_Topnorm_1j                                          rateParam                ww2l2v_13TeV_top_1j           top                      1.0000                        
----------------------------------------------------------------------------------------------------

