## Shape input card
imax 1 number of channels
jmax * number of background
kmax * number of nuisance parameters
----------------------------------------------------------------------------------------------------
bin         ww2l2v_13TeV_sr_0j_B6
observation 1730
shapes  *           * shapes/histos_ww2l2v_13TeV_sr_0j_B6.root     histo_$PROCESS histo_$PROCESS_$SYSTEMATIC
shapes  data_obs           * shapes/histos_ww2l2v_13TeV_sr_0j_B6.root     histo_Data
bin                                                                             ww2l2v_13TeV_sr_0j_B6         ww2l2v_13TeV_sr_0j_B6         ww2l2v_13TeV_sr_0j_B6         ww2l2v_13TeV_sr_0j_B6         ww2l2v_13TeV_sr_0j_B6         ww2l2v_13TeV_sr_0j_B6         ww2l2v_13TeV_sr_0j_B6         ww2l2v_13TeV_sr_0j_B6         ww2l2v_13TeV_sr_0j_B6         ww2l2v_13TeV_sr_0j_B6         ww2l2v_13TeV_sr_0j_B6         ww2l2v_13TeV_sr_0j_B6         ww2l2v_13TeV_sr_0j_B6         ww2l2v_13TeV_sr_0j_B6         ww2l2v_13TeV_sr_0j_B6         ww2l2v_13TeV_sr_0j_B6         ww2l2v_13TeV_sr_0j_B6         ww2l2v_13TeV_sr_0j_B6         ww2l2v_13TeV_sr_0j_B6         ww2l2v_13TeV_sr_0j_B6         ww2l2v_13TeV_sr_0j_B6         ww2l2v_13TeV_sr_0j_B6         ww2l2v_13TeV_sr_0j_B6         ww2l2v_13TeV_sr_0j_B6         ww2l2v_13TeV_sr_0j_B6         ww2l2v_13TeV_sr_0j_B6         
process                                                                         ggWW_B6                       ggWW_B4                       ggWW_B5                       ggWW_B2                       ggWW_B3                       ggWW_B0                       ggWW_B1                       WW_B0                         WW_B6                         WW_B4                         WW_B5                         WW_B2                         WW_B3                         WW_B1                         WWewk                         DY                            Fake_em                       WZ                            Fake_me                       VVV                           top                           Higgs                         ZZ                            ggWW_nonfid                   Vg                            WW_nonfid                     
process                                                                         0                             -1                            -2                            -3                            -4                            -5                            -6                            -7                            -8                            -9                            -10                           -11                           -12                           -13                           1                             2                             3                             4                             5                             6                             7                             8                             9                             10                            11                            12                            
rate                                                                            31.7522                       7.3091                        8.4316                        2.7078                        3.0706                        4.8181                        4.3375                        70.1704                       137.6487                      36.5962                       36.6211                       16.5616                       18.4922                       36.5002                       16.2262                       10.4533                       46.8750                       26.9252                       37.8999                       3.6703                        1177.5669                     35.8834                       1.6066                        7.6897                        0.8362                        47.3984                       
----------------------------------------------------------------------------------------------------
lumi_13TeV_2017                                             lnN                 1.020                         1.020                         1.020                         1.020                         1.020                         1.020                         1.020                         1.020                         1.020                         1.020                         1.020                         1.020                         1.020                         1.020                         1.020                         1.020                         -                             1.020                         -                             1.020                         -                             1.020                         1.020                         1.020                         1.020                         1.020                         
lumi_13TeV_correlated                                       lnN                 1.009                         1.009                         1.009                         1.009                         1.009                         1.009                         1.009                         1.009                         1.009                         1.009                         1.009                         1.009                         1.009                         1.009                         1.009                         1.009                         -                             1.009                         -                             1.009                         -                             1.009                         1.009                         1.009                         1.009                         1.009                         
lumi_13TeV_1718                                             lnN                 1.006                         1.006                         1.006                         1.006                         1.006                         1.006                         1.006                         1.006                         1.006                         1.006                         1.006                         1.006                         1.006                         1.006                         1.006                         1.006                         -                             1.006                         -                             1.006                         -                             1.006                         1.006                         1.006                         1.006                         1.006                         
CMS_fake_syst_em                                            lnN                 -                             -                             -                             -                             -                             -                             -                             -                             -                             -                             -                             -                             -                             -                             -                             -                             1.3                           -                             -                             -                             -                             -                             -                             -                             -                             -                             
CMS_fake_syst_me                                            lnN                 -                             -                             -                             -                             -                             -                             -                             -                             -                             -                             -                             -                             -                             -                             -                             -                             -                             -                             1.3                           -                             -                             -                             -                             -                             -                             -                             
CMS_fake_e_2017                                             shape               -                             -                             -                             -                             -                             -                             -                             -                             -                             -                             -                             -                             -                             -                             -                             -                             1.000                         -                             1.000                         -                             -                             -                             -                             -                             -                             -                             
CMS_fake_stat_e_2017                                        shape               -                             -                             -                             -                             -                             -                             -                             -                             -                             -                             -                             -                             -                             -                             -                             -                             1.000                         -                             1.000                         -                             -                             -                             -                             -                             -                             -                             
CMS_fake_m_2017                                             shape               -                             -                             -                             -                             -                             -                             -                             -                             -                             -                             -                             -                             -                             -                             -                             -                             1.000                         -                             1.000                         -                             -                             -                             -                             -                             -                             -                             
CMS_fake_stat_m_2017                                        shape               -                             -                             -                             -                             -                             -                             -                             -                             -                             -                             -                             -                             -                             -                             -                             -                             1.000                         -                             1.000                         -                             -                             -                             -                             -                             -                             -                             
CMS_btag_lf                                                 shape               1.000                         1.000                         1.000                         1.000                         1.000                         1.000                         1.000                         1.000                         1.000                         1.000                         1.000                         1.000                         1.000                         1.000                         1.000                         1.000                         -                             1.000                         -                             1.000                         1.000                         1.000                         1.000                         1.000                         1.000                         1.000                         
CMS_btag_hf                                                 shape               1.000                         1.000                         1.000                         1.000                         1.000                         1.000                         1.000                         1.000                         1.000                         1.000                         1.000                         1.000                         1.000                         1.000                         1.000                         1.000                         -                             1.000                         -                             1.000                         1.000                         1.000                         1.000                         1.000                         1.000                         1.000                         
CMS_btag_hfstats1_2017                                      shape               1.000                         1.000                         1.000                         1.000                         1.000                         1.000                         1.000                         1.000                         1.000                         1.000                         1.000                         1.000                         1.000                         1.000                         1.000                         1.000                         -                             1.000                         -                             1.000                         1.000                         1.000                         1.000                         1.000                         1.000                         1.000                         
CMS_btag_hfstats2_2017                                      shape               1.000                         1.000                         1.000                         1.000                         1.000                         1.000                         1.000                         1.000                         1.000                         1.000                         1.000                         1.000                         1.000                         1.000                         1.000                         1.000                         -                             1.000                         -                             1.000                         1.000                         1.000                         1.000                         1.000                         1.000                         1.000                         
CMS_btag_lfstats1_2017                                      shape               1.000                         1.000                         1.000                         1.000                         1.000                         1.000                         1.000                         1.000                         1.000                         1.000                         1.000                         1.000                         1.000                         1.000                         1.000                         1.000                         -                             1.000                         -                             1.000                         1.000                         1.000                         1.000                         1.000                         1.000                         1.000                         
CMS_btag_lfstats2_2017                                      shape               1.000                         1.000                         1.000                         1.000                         1.000                         1.000                         1.000                         1.000                         1.000                         1.000                         1.000                         1.000                         1.000                         1.000                         1.000                         1.000                         -                             1.000                         -                             1.000                         1.000                         1.000                         1.000                         1.000                         1.000                         1.000                         
CMS_btag_cferr1                                             shape               1.000                         1.000                         1.000                         1.000                         1.000                         1.000                         1.000                         1.000                         1.000                         1.000                         1.000                         1.000                         1.000                         1.000                         1.000                         1.000                         -                             1.000                         -                             1.000                         1.000                         1.000                         1.000                         1.000                         1.000                         1.000                         
CMS_btag_cferr2                                             shape               1.000                         1.000                         1.000                         1.000                         1.000                         1.000                         1.000                         1.000                         1.000                         1.000                         1.000                         1.000                         1.000                         1.000                         1.000                         1.000                         -                             1.000                         -                             1.000                         1.000                         1.000                         1.000                         1.000                         1.000                         1.000                         
CMS_eff_hwwtrigger_2017                                     shape               1.000                         1.000                         1.000                         1.000                         1.000                         1.000                         1.000                         1.000                         1.000                         1.000                         1.000                         1.000                         1.000                         1.000                         1.000                         1.000                         -                             1.000                         -                             1.000                         1.000                         1.000                         1.000                         1.000                         1.000                         1.000                         
CMS_eff_prefiring_2017                                      shape               1.000                         1.000                         1.000                         1.000                         1.000                         1.000                         1.000                         1.000                         1.000                         1.000                         1.000                         1.000                         1.000                         1.000                         1.000                         1.000                         -                             1.000                         -                             1.000                         1.000                         1.000                         1.000                         1.000                         1.000                         1.000                         
CMS_eff_e_2017                                              shape               1.000                         1.000                         1.000                         1.000                         1.000                         1.000                         1.000                         1.000                         1.000                         1.000                         1.000                         1.000                         1.000                         1.000                         1.000                         1.000                         -                             1.000                         -                             1.000                         1.000                         1.000                         1.000                         1.000                         1.000                         1.000                         
CMS_scale_e_2017                                            shape               -                             -                             -                             -                             -                             -                             -                             1.000                         1.000                         1.000                         1.000                         1.000                         1.000                         1.000                         1.000                         1.000                         -                             1.000                         -                             1.000                         1.000                         1.000                         1.000                         -                             1.000                         1.000                         
CMS_eff_m_2017                                              shape               1.000                         1.000                         1.000                         1.000                         1.000                         1.000                         1.000                         1.000                         1.000                         1.000                         1.000                         1.000                         1.000                         1.000                         1.000                         1.000                         -                             1.000                         -                             1.000                         1.000                         1.000                         1.000                         1.000                         1.000                         1.000                         
CMS_scale_m_2017                                            shape               -                             -                             -                             -                             -                             -                             -                             1.000                         1.000                         1.000                         1.000                         1.000                         1.000                         1.000                         1.000                         1.000                         -                             1.000                         -                             1.000                         1.000                         1.000                         1.000                         -                             1.000                         1.000                         
CMS_scale_JESAbsolute                                       shape               1.000                         1.000                         1.000                         1.000                         1.000                         1.000                         1.000                         1.000                         1.000                         1.000                         1.000                         1.000                         1.000                         1.000                         1.000                         1.000                         -                             1.000                         -                             1.000                         1.000                         1.000                         1.000                         1.000                         1.000                         1.000                         
CMS_scale_JESAbsolute_2017                                  shape               1.000                         1.000                         1.000                         1.000                         1.000                         1.000                         1.000                         1.000                         1.000                         1.000                         1.000                         1.000                         1.000                         1.000                         1.000                         1.000                         -                             1.000                         -                             1.000                         1.000                         1.000                         1.000                         1.000                         1.000                         1.000                         
CMS_scale_JESBBEC1                                          shape               1.000                         1.000                         1.000                         1.000                         1.000                         1.000                         1.000                         1.000                         1.000                         1.000                         1.000                         1.000                         1.000                         1.000                         1.000                         1.000                         -                             1.000                         -                             1.000                         1.000                         1.000                         1.000                         1.000                         1.000                         1.000                         
CMS_scale_JESBBEC1_2017                                     shape               1.000                         1.000                         1.000                         1.000                         1.000                         1.000                         1.000                         1.000                         1.000                         1.000                         1.000                         1.000                         1.000                         1.000                         1.000                         1.000                         -                             1.000                         -                             1.000                         1.000                         1.000                         1.000                         1.000                         1.000                         1.000                         
CMS_scale_JESEC2                                            shape               1.000                         1.000                         1.000                         1.000                         1.000                         1.000                         1.000                         1.000                         1.000                         1.000                         1.000                         1.000                         1.000                         1.000                         1.000                         1.000                         -                             1.000                         -                             1.000                         1.000                         1.000                         1.000                         1.000                         1.000                         1.000                         
CMS_scale_JESEC2_2017                                       shape               1.000                         1.000                         1.000                         1.000                         1.000                         1.000                         1.000                         1.000                         1.000                         1.000                         1.000                         1.000                         1.000                         1.000                         1.000                         1.000                         -                             1.000                         -                             1.000                         1.000                         1.000                         1.000                         1.000                         1.000                         1.000                         
CMS_scale_JESFlavorQCD                                      shape               1.000                         1.000                         1.000                         1.000                         1.000                         1.000                         1.000                         1.000                         1.000                         1.000                         1.000                         1.000                         1.000                         1.000                         1.000                         1.000                         -                             1.000                         -                             1.000                         1.000                         1.000                         1.000                         1.000                         1.000                         1.000                         
CMS_scale_JESHF                                             shape               1.000                         1.000                         1.000                         1.000                         1.000                         1.000                         1.000                         1.000                         1.000                         1.000                         1.000                         1.000                         1.000                         1.000                         1.000                         1.000                         -                             1.000                         -                             1.000                         1.000                         1.000                         1.000                         1.000                         1.000                         1.000                         
CMS_scale_JESHF_2017                                        shape               1.000                         1.000                         1.000                         1.000                         1.000                         1.000                         1.000                         1.000                         1.000                         1.000                         1.000                         1.000                         1.000                         1.000                         1.000                         1.000                         -                             1.000                         -                             1.000                         1.000                         1.000                         1.000                         1.000                         1.000                         1.000                         
CMS_scale_JESRelativeBal                                    shape               1.000                         1.000                         1.000                         1.000                         1.000                         1.000                         1.000                         1.000                         1.000                         1.000                         1.000                         1.000                         1.000                         1.000                         1.000                         1.000                         -                             1.000                         -                             1.000                         1.000                         1.000                         1.000                         1.000                         1.000                         1.000                         
CMS_scale_JESRelativeSample_2017                            shape               1.000                         1.000                         1.000                         1.000                         1.000                         1.000                         1.000                         1.000                         1.000                         1.000                         1.000                         1.000                         1.000                         1.000                         1.000                         1.000                         -                             1.000                         -                             1.000                         1.000                         1.000                         1.000                         1.000                         1.000                         1.000                         
CMS_res_j_2017                                              shape               -                             -                             -                             -                             -                             -                             -                             1.000                         1.000                         1.000                         1.000                         1.000                         1.000                         1.000                         1.000                         1.000                         -                             1.000                         -                             1.000                         1.000                         1.000                         1.000                         -                             1.000                         1.000                         
CMS_scale_met_2017                                          shape               1.000                         1.000                         1.000                         1.000                         1.000                         1.000                         1.000                         1.000                         1.000                         1.000                         1.000                         1.000                         1.000                         1.000                         1.000                         1.000                         -                             1.000                         -                             1.000                         1.000                         1.000                         1.000                         1.000                         1.000                         1.000                         
CMS_PUID_2017                                               shape               1.000                         1.000                         1.000                         1.000                         1.000                         1.000                         1.000                         1.000                         1.000                         1.000                         1.000                         1.000                         1.000                         1.000                         1.000                         1.000                         -                             1.000                         -                             1.000                         1.000                         1.000                         1.000                         1.000                         1.000                         1.000                         
CMS_PU_2017                                                 shape               1.000                         1.000                         1.000                         1.000                         1.000                         1.000                         1.000                         1.000                         1.000                         1.000                         1.000                         1.000                         1.000                         1.000                         1.000                         1.000                         -                             1.000                         -                             1.000                         1.000                         1.000                         1.000                         1.000                         1.000                         1.000                         
PS_ISR                                                      shape               -                             -                             -                             -                             -                             -                             -                             -                             -                             -                             -                             -                             -                             -                             1.000                         1.000                         -                             1.000                         -                             1.000                         1.000                         1.000                         1.000                         -                             1.000                         -                             
PS_ISR                                                      shape               1.000                         1.000                         1.000                         1.000                         1.000                         1.000                         1.000                         1.000                         1.000                         1.000                         1.000                         1.000                         1.000                         1.000                         -                             -                             -                             -                             -                             -                             -                             -                             -                             1.000                         -                             1.000                         
PS_FSR                                                      shape               -                             -                             -                             -                             -                             -                             -                             -                             -                             -                             -                             -                             -                             -                             1.000                         1.000                         -                             1.000                         -                             1.000                         1.000                         1.000                         1.000                         -                             1.000                         -                             
PS_FSR                                                      shape               1.000                         1.000                         1.000                         1.000                         1.000                         1.000                         1.000                         1.000                         1.000                         1.000                         1.000                         1.000                         1.000                         1.000                         -                             -                             -                             -                             -                             -                             -                             -                             -                             1.000                         -                             1.000                         
UE_CP5                                                      lnN                 -                             -                             -                             -                             -                             -                             -                             -                             -                             -                             -                             -                             -                             -                             1.015                         1.015                         -                             1.015                         -                             1.015                         1.015                         1.015                         1.015                         -                             1.015                         -                             
singleTopToTTbar                                            shape               -                             -                             -                             -                             -                             -                             -                             -                             -                             -                             -                             -                             -                             -                             -                             -                             -                             -                             -                             -                             1.000                         -                             -                             -                             -                             -                             
CMS_hww_WgStarScale                                         lnN                 -                             -                             -                             -                             -                             -                             -                             -                             -                             -                             -                             -                             -                             -                             -                             -                             -                             -                             -                             -                             -                             -                             -                             -                             1.096                         -                             
pdf_Higgs                                                   lnN                 -                             -                             -                             -                             -                             -                             -                             -                             -                             -                             -                             -                             -                             -                             -                             -                             -                             -                             -                             -                             -                             1.029                         -                             -                             -                             -                             
pdf_qqbar                                                   lnN                 -                             -                             -                             -                             -                             -                             -                             -                             -                             -                             -                             -                             -                             -                             -                             -                             -                             1.04                          -                             -                             -                             -                             1.04                          -                             1.04                          -                             
pdf_Higgs_ACCEPT                                            lnN                 -                             -                             -                             -                             -                             -                             -                             -                             -                             -                             -                             -                             -                             -                             -                             -                             -                             -                             -                             -                             -                             1.005                         -                             -                             -                             -                             
pdf_qqbar_ACCEPT                                            lnN                 -                             -                             -                             -                             -                             -                             -                             -                             -                             -                             -                             -                             -                             -                             -                             -                             -                             1.001                         -                             -                             -                             -                             1.001                         -                             -                             -                             
CMS_hww_pdf_WW                                              shape               -                             -                             -                             -                             -                             -                             -                             1.000                         1.000                         1.000                         1.000                         1.000                         1.000                         1.000                         -                             -                             -                             -                             -                             -                             -                             -                             -                             -                             -                             1.000                         
QCDscale_V                                                  shape               -                             -                             -                             -                             -                             -                             -                             -                             -                             -                             -                             -                             -                             -                             -                             1.000                         -                             -                             -                             -                             -                             -                             -                             -                             -                             -                             
QCDscale_VV                                                 shape               -                             -                             -                             -                             -                             -                             -                             -                             -                             -                             -                             -                             -                             -                             -                             -                             -                             1.000                         -                             -                             -                             -                             1.000                         -                             1.000                         -                             
QCDscale_WW                                                 shape               -                             -                             -                             -                             -                             -                             -                             1.000                         1.000                         1.000                         1.000                         1.000                         1.000                         1.000                         -                             -                             -                             -                             -                             -                             -                             -                             -                             -                             -                             1.000                         
QCDscale_top_0j                                             shape               -                             -                             -                             -                             -                             -                             -                             -                             -                             -                             -                             -                             -                             -                             -                             -                             -                             -                             -                             -                             1.000                         -                             -                             -                             -                             -                             
CMS_hww_WWresum                                             shape               -                             -                             -                             -                             -                             -                             -                             1.000                         1.000                         1.000                         1.000                         1.000                         1.000                         1.000                         -                             -                             -                             -                             -                             -                             -                             -                             -                             -                             -                             1.000                         
CMS_hww_WWqscale                                            shape               -                             -                             -                             -                             -                             -                             -                             1.000                         1.000                         1.000                         1.000                         1.000                         1.000                         1.000                         -                             -                             -                             -                             -                             -                             -                             -                             -                             -                             -                             1.000                         
QCDscale_Higgs                                              lnN                 -                             -                             -                             -                             -                             -                             -                             -                             -                             -                             -                             -                             -                             -                             -                             -                             -                             -                             -                             -                             -                             0.951/1.035                   -                             -                             -                             -                             
QCDscale_WWewk                                              lnN                 -                             -                             -                             -                             -                             -                             -                             -                             -                             -                             -                             -                             -                             -                             1.11                          -                             -                             -                             -                             -                             -                             -                             -                             -                             -                             -                             
QCDscale_Higgs_ACCEPT                                       lnN                 -                             -                             -                             -                             -                             -                             -                             -                             -                             -                             -                             -                             -                             -                             -                             -                             -                             -                             -                             -                             -                             1.010                         -                             -                             -                             -                             
* autoMCStats 10  0
CMS_hww_Topnorm_0j                                          rateParam                ww2l2v_13TeV_sr_0j_B6         top                      1.0000                        
----------------------------------------------------------------------------------------------------

