## Shape input card
imax 1 number of channels
jmax * number of background
kmax * number of nuisance parameters
----------------------------------------------------------------------------------------------------
bin         ww2l2v_13TeV_sr_2j_B5
observation 777
shapes  *           * shapes/histos_ww2l2v_13TeV_sr_2j_B5.root     histo_$PROCESS histo_$PROCESS_$SYSTEMATIC
shapes  data_obs           * shapes/histos_ww2l2v_13TeV_sr_2j_B5.root     histo_Data
bin                                                                             ww2l2v_13TeV_sr_2j_B5         ww2l2v_13TeV_sr_2j_B5         ww2l2v_13TeV_sr_2j_B5         ww2l2v_13TeV_sr_2j_B5         ww2l2v_13TeV_sr_2j_B5         ww2l2v_13TeV_sr_2j_B5         ww2l2v_13TeV_sr_2j_B5         ww2l2v_13TeV_sr_2j_B5         ww2l2v_13TeV_sr_2j_B5         ww2l2v_13TeV_sr_2j_B5         ww2l2v_13TeV_sr_2j_B5         ww2l2v_13TeV_sr_2j_B5         ww2l2v_13TeV_sr_2j_B5         ww2l2v_13TeV_sr_2j_B5         ww2l2v_13TeV_sr_2j_B5         ww2l2v_13TeV_sr_2j_B5         ww2l2v_13TeV_sr_2j_B5         ww2l2v_13TeV_sr_2j_B5         ww2l2v_13TeV_sr_2j_B5         ww2l2v_13TeV_sr_2j_B5         ww2l2v_13TeV_sr_2j_B5         ww2l2v_13TeV_sr_2j_B5         ww2l2v_13TeV_sr_2j_B5         ww2l2v_13TeV_sr_2j_B5         ww2l2v_13TeV_sr_2j_B5         ww2l2v_13TeV_sr_2j_B5         
process                                                                         ggWW_B6                       ggWW_B4                       ggWW_B5                       ggWW_B2                       ggWW_B3                       ggWW_B0                       ggWW_B1                       WW_B0                         WW_B6                         WW_B4                         WW_B5                         WW_B2                         WW_B3                         WW_B1                         WWewk                         DY                            Fake_em                       WZ                            Fake_me                       VVV                           top                           Higgs                         ZZ                            ggWW_nonfid                   Vg                            WW_nonfid                     
process                                                                         0                             -1                            -2                            -3                            -4                            -5                            -6                            -7                            -8                            -9                            -10                           -11                           -12                           -13                           1                             2                             3                             4                             5                             6                             7                             8                             9                             10                            11                            12                            
rate                                                                            1.7770                        0.8680                        0.9897                        0.2620                        0.3532                        0.1795                        0.2773                        0.9698                        16.6861                       9.1315                        9.0932                        2.2690                        2.3439                        1.3375                        1.9715                        5.9948                        17.4179                       7.8633                        13.5057                       1.9978                        717.4355                      4.5614                        0.6507                        0.5784                        0.2694                        6.8941                        
----------------------------------------------------------------------------------------------------
lumi_13TeV_2017                                             lnN                 1.020                         1.020                         1.020                         1.020                         1.020                         1.020                         1.020                         1.020                         1.020                         1.020                         1.020                         1.020                         1.020                         1.020                         1.020                         1.020                         -                             1.020                         -                             1.020                         -                             1.020                         1.020                         1.020                         1.020                         1.020                         
lumi_13TeV_correlated                                       lnN                 1.009                         1.009                         1.009                         1.009                         1.009                         1.009                         1.009                         1.009                         1.009                         1.009                         1.009                         1.009                         1.009                         1.009                         1.009                         1.009                         -                             1.009                         -                             1.009                         -                             1.009                         1.009                         1.009                         1.009                         1.009                         
lumi_13TeV_1718                                             lnN                 1.006                         1.006                         1.006                         1.006                         1.006                         1.006                         1.006                         1.006                         1.006                         1.006                         1.006                         1.006                         1.006                         1.006                         1.006                         1.006                         -                             1.006                         -                             1.006                         -                             1.006                         1.006                         1.006                         1.006                         1.006                         
CMS_fake_syst_em                                            lnN                 -                             -                             -                             -                             -                             -                             -                             -                             -                             -                             -                             -                             -                             -                             -                             -                             1.3                           -                             -                             -                             -                             -                             -                             -                             -                             -                             
CMS_fake_syst_me                                            lnN                 -                             -                             -                             -                             -                             -                             -                             -                             -                             -                             -                             -                             -                             -                             -                             -                             -                             -                             1.3                           -                             -                             -                             -                             -                             -                             -                             
CMS_fake_e_2017                                             shape               -                             -                             -                             -                             -                             -                             -                             -                             -                             -                             -                             -                             -                             -                             -                             -                             1.000                         -                             1.000                         -                             -                             -                             -                             -                             -                             -                             
CMS_fake_stat_e_2017                                        shape               -                             -                             -                             -                             -                             -                             -                             -                             -                             -                             -                             -                             -                             -                             -                             -                             1.000                         -                             1.000                         -                             -                             -                             -                             -                             -                             -                             
CMS_fake_m_2017                                             shape               -                             -                             -                             -                             -                             -                             -                             -                             -                             -                             -                             -                             -                             -                             -                             -                             1.000                         -                             1.000                         -                             -                             -                             -                             -                             -                             -                             
CMS_fake_stat_m_2017                                        shape               -                             -                             -                             -                             -                             -                             -                             -                             -                             -                             -                             -                             -                             -                             -                             -                             1.000                         -                             1.000                         -                             -                             -                             -                             -                             -                             -                             
CMS_btag_lf                                                 shape               1.000                         1.000                         1.000                         1.000                         1.000                         1.000                         1.000                         1.000                         1.000                         1.000                         1.000                         1.000                         1.000                         1.000                         1.000                         1.000                         -                             1.000                         -                             1.000                         1.000                         1.000                         1.000                         1.000                         1.000                         1.000                         
CMS_btag_hf                                                 shape               1.000                         1.000                         1.000                         1.000                         1.000                         1.000                         1.000                         1.000                         1.000                         1.000                         1.000                         1.000                         1.000                         1.000                         1.000                         1.000                         -                             1.000                         -                             1.000                         1.000                         1.000                         1.000                         1.000                         1.000                         1.000                         
CMS_btag_hfstats1_2017                                      shape               1.000                         1.000                         1.000                         1.000                         1.000                         1.000                         1.000                         1.000                         1.000                         1.000                         1.000                         1.000                         1.000                         1.000                         1.000                         1.000                         -                             1.000                         -                             1.000                         1.000                         1.000                         1.000                         1.000                         1.000                         1.000                         
CMS_btag_hfstats2_2017                                      shape               1.000                         1.000                         1.000                         1.000                         1.000                         1.000                         1.000                         1.000                         1.000                         1.000                         1.000                         1.000                         1.000                         1.000                         1.000                         1.000                         -                             1.000                         -                             1.000                         1.000                         1.000                         1.000                         1.000                         1.000                         1.000                         
CMS_btag_lfstats1_2017                                      shape               1.000                         1.000                         1.000                         1.000                         1.000                         1.000                         1.000                         1.000                         1.000                         1.000                         1.000                         1.000                         1.000                         1.000                         1.000                         1.000                         -                             1.000                         -                             1.000                         1.000                         1.000                         1.000                         1.000                         1.000                         1.000                         
CMS_btag_lfstats2_2017                                      shape               1.000                         1.000                         1.000                         1.000                         1.000                         1.000                         1.000                         1.000                         1.000                         1.000                         1.000                         1.000                         1.000                         1.000                         1.000                         1.000                         -                             1.000                         -                             1.000                         1.000                         1.000                         1.000                         1.000                         1.000                         1.000                         
CMS_btag_cferr1                                             shape               1.000                         1.000                         1.000                         1.000                         1.000                         1.000                         1.000                         1.000                         1.000                         1.000                         1.000                         1.000                         1.000                         1.000                         1.000                         1.000                         -                             1.000                         -                             1.000                         1.000                         1.000                         1.000                         1.000                         1.000                         1.000                         
CMS_btag_cferr2                                             shape               1.000                         1.000                         1.000                         1.000                         1.000                         1.000                         1.000                         1.000                         1.000                         1.000                         1.000                         1.000                         1.000                         1.000                         1.000                         1.000                         -                             1.000                         -                             1.000                         1.000                         1.000                         1.000                         1.000                         1.000                         1.000                         
CMS_eff_hwwtrigger_2017                                     shape               1.000                         1.000                         1.000                         1.000                         1.000                         1.000                         1.000                         1.000                         1.000                         1.000                         1.000                         1.000                         1.000                         1.000                         1.000                         1.000                         -                             1.000                         -                             1.000                         1.000                         1.000                         1.000                         1.000                         1.000                         1.000                         
CMS_eff_prefiring_2017                                      shape               1.000                         1.000                         1.000                         1.000                         1.000                         1.000                         1.000                         1.000                         1.000                         1.000                         1.000                         1.000                         1.000                         1.000                         1.000                         1.000                         -                             1.000                         -                             1.000                         1.000                         1.000                         1.000                         1.000                         1.000                         1.000                         
CMS_eff_e_2017                                              shape               1.000                         1.000                         1.000                         1.000                         1.000                         1.000                         1.000                         1.000                         1.000                         1.000                         1.000                         1.000                         1.000                         1.000                         1.000                         1.000                         -                             1.000                         -                             1.000                         1.000                         1.000                         1.000                         1.000                         1.000                         1.000                         
CMS_scale_e_2017                                            shape               -                             -                             -                             -                             -                             -                             -                             1.000                         1.000                         1.000                         1.000                         1.000                         1.000                         1.000                         1.000                         1.000                         -                             1.000                         -                             1.000                         1.000                         1.000                         1.000                         -                             1.000                         1.000                         
CMS_eff_m_2017                                              shape               1.000                         1.000                         1.000                         1.000                         1.000                         1.000                         1.000                         1.000                         1.000                         1.000                         1.000                         1.000                         1.000                         1.000                         1.000                         1.000                         -                             1.000                         -                             1.000                         1.000                         1.000                         1.000                         1.000                         1.000                         1.000                         
CMS_scale_m_2017                                            shape               -                             -                             -                             -                             -                             -                             -                             1.000                         1.000                         1.000                         1.000                         1.000                         1.000                         1.000                         1.000                         1.000                         -                             1.000                         -                             1.000                         1.000                         1.000                         1.000                         -                             1.000                         1.000                         
CMS_scale_JESAbsolute                                       shape               1.000                         1.000                         1.000                         1.000                         1.000                         1.000                         1.000                         1.000                         1.000                         1.000                         1.000                         1.000                         1.000                         1.000                         1.000                         1.000                         -                             1.000                         -                             1.000                         1.000                         1.000                         1.000                         1.000                         1.000                         1.000                         
CMS_scale_JESAbsolute_2017                                  shape               1.000                         1.000                         1.000                         1.000                         1.000                         1.000                         1.000                         1.000                         1.000                         1.000                         1.000                         1.000                         1.000                         1.000                         1.000                         1.000                         -                             1.000                         -                             1.000                         1.000                         1.000                         1.000                         1.000                         1.000                         1.000                         
CMS_scale_JESBBEC1                                          shape               1.000                         1.000                         1.000                         1.000                         1.000                         1.000                         1.000                         1.000                         1.000                         1.000                         1.000                         1.000                         1.000                         1.000                         1.000                         1.000                         -                             1.000                         -                             1.000                         1.000                         1.000                         1.000                         1.000                         1.000                         1.000                         
CMS_scale_JESBBEC1_2017                                     shape               1.000                         1.000                         1.000                         1.000                         1.000                         1.000                         1.000                         1.000                         1.000                         1.000                         1.000                         1.000                         1.000                         1.000                         1.000                         1.000                         -                             1.000                         -                             1.000                         1.000                         1.000                         1.000                         1.000                         1.000                         1.000                         
CMS_scale_JESEC2                                            shape               1.000                         1.000                         1.000                         1.000                         1.000                         1.000                         1.000                         1.000                         1.000                         1.000                         1.000                         1.000                         1.000                         1.000                         1.000                         1.000                         -                             1.000                         -                             1.000                         1.000                         1.000                         1.000                         1.000                         1.000                         1.000                         
CMS_scale_JESEC2_2017                                       shape               1.000                         1.000                         1.000                         1.000                         1.000                         1.000                         1.000                         1.000                         1.000                         1.000                         1.000                         1.000                         1.000                         1.000                         1.000                         1.000                         -                             1.000                         -                             1.000                         1.000                         1.000                         1.000                         1.000                         1.000                         1.000                         
CMS_scale_JESFlavorQCD                                      shape               1.000                         1.000                         1.000                         1.000                         1.000                         1.000                         1.000                         1.000                         1.000                         1.000                         1.000                         1.000                         1.000                         1.000                         1.000                         1.000                         -                             1.000                         -                             1.000                         1.000                         1.000                         1.000                         1.000                         1.000                         1.000                         
CMS_scale_JESHF                                             shape               1.000                         1.000                         1.000                         1.000                         1.000                         1.000                         1.000                         1.000                         1.000                         1.000                         1.000                         1.000                         1.000                         1.000                         1.000                         1.000                         -                             1.000                         -                             1.000                         1.000                         1.000                         1.000                         1.000                         1.000                         1.000                         
CMS_scale_JESHF_2017                                        shape               1.000                         1.000                         1.000                         1.000                         1.000                         1.000                         1.000                         1.000                         1.000                         1.000                         1.000                         1.000                         1.000                         1.000                         1.000                         1.000                         -                             1.000                         -                             1.000                         1.000                         1.000                         1.000                         1.000                         1.000                         1.000                         
CMS_scale_JESRelativeBal                                    shape               1.000                         1.000                         1.000                         1.000                         1.000                         1.000                         1.000                         1.000                         1.000                         1.000                         1.000                         1.000                         1.000                         1.000                         1.000                         1.000                         -                             1.000                         -                             1.000                         1.000                         1.000                         1.000                         1.000                         1.000                         1.000                         
CMS_scale_JESRelativeSample_2017                            shape               1.000                         1.000                         1.000                         1.000                         1.000                         1.000                         1.000                         1.000                         1.000                         1.000                         1.000                         1.000                         1.000                         1.000                         1.000                         1.000                         -                             1.000                         -                             1.000                         1.000                         1.000                         1.000                         1.000                         1.000                         1.000                         
CMS_res_j_2017                                              shape               -                             -                             -                             -                             -                             -                             -                             1.000                         1.000                         1.000                         1.000                         1.000                         1.000                         1.000                         1.000                         1.000                         -                             1.000                         -                             1.000                         1.000                         1.000                         1.000                         -                             1.000                         1.000                         
CMS_scale_met_2017                                          shape               1.000                         1.000                         1.000                         1.000                         1.000                         1.000                         1.000                         1.000                         1.000                         1.000                         1.000                         1.000                         1.000                         1.000                         1.000                         1.000                         -                             1.000                         -                             1.000                         1.000                         1.000                         1.000                         1.000                         1.000                         1.000                         
CMS_PUID_2017                                               shape               1.000                         1.000                         1.000                         1.000                         1.000                         1.000                         1.000                         1.000                         1.000                         1.000                         1.000                         1.000                         1.000                         1.000                         1.000                         1.000                         -                             1.000                         -                             1.000                         1.000                         1.000                         1.000                         1.000                         1.000                         1.000                         
CMS_PU_2017                                                 shape               1.000                         1.000                         1.000                         1.000                         1.000                         1.000                         1.000                         1.000                         1.000                         1.000                         1.000                         1.000                         1.000                         1.000                         1.000                         1.000                         -                             1.000                         -                             1.000                         1.000                         1.000                         1.000                         1.000                         1.000                         1.000                         
PS_ISR                                                      shape               -                             -                             -                             -                             -                             -                             -                             -                             -                             -                             -                             -                             -                             -                             1.000                         1.000                         -                             1.000                         -                             1.000                         1.000                         1.000                         1.000                         -                             1.000                         -                             
PS_ISR                                                      shape               1.000                         1.000                         1.000                         1.000                         1.000                         1.000                         1.000                         1.000                         1.000                         1.000                         1.000                         1.000                         1.000                         1.000                         -                             -                             -                             -                             -                             -                             -                             -                             -                             1.000                         -                             1.000                         
PS_FSR                                                      shape               -                             -                             -                             -                             -                             -                             -                             -                             -                             -                             -                             -                             -                             -                             1.000                         1.000                         -                             1.000                         -                             1.000                         1.000                         1.000                         1.000                         -                             1.000                         -                             
PS_FSR                                                      shape               1.000                         1.000                         1.000                         1.000                         1.000                         1.000                         1.000                         1.000                         1.000                         1.000                         1.000                         1.000                         1.000                         1.000                         -                             -                             -                             -                             -                             -                             -                             -                             -                             1.000                         -                             1.000                         
UE_CP5                                                      lnN                 -                             -                             -                             -                             -                             -                             -                             -                             -                             -                             -                             -                             -                             -                             1.015                         1.015                         -                             1.015                         -                             1.015                         1.015                         1.015                         1.015                         -                             1.015                         -                             
singleTopToTTbar                                            shape               -                             -                             -                             -                             -                             -                             -                             -                             -                             -                             -                             -                             -                             -                             -                             -                             -                             -                             -                             -                             1.000                         -                             -                             -                             -                             -                             
CMS_hww_WgStarScale                                         lnN                 -                             -                             -                             -                             -                             -                             -                             -                             -                             -                             -                             -                             -                             -                             -                             -                             -                             -                             -                             -                             -                             -                             -                             -                             1.097                         -                             
pdf_Higgs                                                   lnN                 -                             -                             -                             -                             -                             -                             -                             -                             -                             -                             -                             -                             -                             -                             -                             -                             -                             -                             -                             -                             -                             1.028                         -                             -                             -                             -                             
pdf_qqbar                                                   lnN                 -                             -                             -                             -                             -                             -                             -                             -                             -                             -                             -                             -                             -                             -                             -                             -                             -                             1.04                          -                             -                             -                             -                             1.04                          -                             1.04                          -                             
pdf_Higgs_ACCEPT                                            lnN                 -                             -                             -                             -                             -                             -                             -                             -                             -                             -                             -                             -                             -                             -                             -                             -                             -                             -                             -                             -                             -                             1.005                         -                             -                             -                             -                             
pdf_qqbar_ACCEPT                                            lnN                 -                             -                             -                             -                             -                             -                             -                             -                             -                             -                             -                             -                             -                             -                             -                             -                             -                             1.001                         -                             -                             -                             -                             1.001                         -                             -                             -                             
CMS_hww_pdf_WW                                              shape               -                             -                             -                             -                             -                             -                             -                             1.000                         1.000                         1.000                         1.000                         1.000                         1.000                         1.000                         -                             -                             -                             -                             -                             -                             -                             -                             -                             -                             -                             1.000                         
QCDscale_V                                                  shape               -                             -                             -                             -                             -                             -                             -                             -                             -                             -                             -                             -                             -                             -                             -                             1.000                         -                             -                             -                             -                             -                             -                             -                             -                             -                             -                             
QCDscale_VV                                                 shape               -                             -                             -                             -                             -                             -                             -                             -                             -                             -                             -                             -                             -                             -                             -                             -                             -                             1.000                         -                             -                             -                             -                             1.000                         -                             1.000                         -                             
QCDscale_WW                                                 shape               -                             -                             -                             -                             -                             -                             -                             1.000                         1.000                         1.000                         1.000                         1.000                         1.000                         1.000                         -                             -                             -                             -                             -                             -                             -                             -                             -                             -                             -                             1.000                         
QCDscale_top_2j                                             shape               -                             -                             -                             -                             -                             -                             -                             -                             -                             -                             -                             -                             -                             -                             -                             -                             -                             -                             -                             -                             1.000                         -                             -                             -                             -                             -                             
CMS_hww_WWresum                                             shape               -                             -                             -                             -                             -                             -                             -                             1.000                         1.000                         1.000                         1.000                         1.000                         1.000                         1.000                         -                             -                             -                             -                             -                             -                             -                             -                             -                             -                             -                             1.000                         
CMS_hww_WWqscale                                            shape               -                             -                             -                             -                             -                             -                             -                             1.000                         1.000                         1.000                         1.000                         1.000                         1.000                         1.000                         -                             -                             -                             -                             -                             -                             -                             -                             -                             -                             -                             1.000                         
QCDscale_Higgs                                              lnN                 -                             -                             -                             -                             -                             -                             -                             -                             -                             -                             -                             -                             -                             -                             -                             -                             -                             -                             -                             -                             -                             0.950/1.035                   -                             -                             -                             -                             
QCDscale_WWewk                                              lnN                 -                             -                             -                             -                             -                             -                             -                             -                             -                             -                             -                             -                             -                             -                             1.11                          -                             -                             -                             -                             -                             -                             -                             -                             -                             -                             -                             
QCDscale_Higgs_ACCEPT                                       lnN                 -                             -                             -                             -                             -                             -                             -                             -                             -                             -                             -                             -                             -                             -                             -                             -                             -                             -                             -                             -                             -                             1.010                         -                             -                             -                             -                             
* autoMCStats 10  0
CMS_hww_Topnorm_2j                                          rateParam                ww2l2v_13TeV_sr_2j_B5         top                      1.0000                        
----------------------------------------------------------------------------------------------------

