## Shape input card
imax 1 number of channels
jmax * number of background
kmax * number of nuisance parameters
----------------------------------------------------------------------------------------------------
bin         ww2l2v_13TeV_sr_2j_B2
observation 165
shapes  *           * shapes/histos_ww2l2v_13TeV_sr_2j_B2.root     histo_$PROCESS histo_$PROCESS_$SYSTEMATIC
shapes  data_obs           * shapes/histos_ww2l2v_13TeV_sr_2j_B2.root     histo_Data
bin                                                                             ww2l2v_13TeV_sr_2j_B2         ww2l2v_13TeV_sr_2j_B2         ww2l2v_13TeV_sr_2j_B2         ww2l2v_13TeV_sr_2j_B2         ww2l2v_13TeV_sr_2j_B2         ww2l2v_13TeV_sr_2j_B2         ww2l2v_13TeV_sr_2j_B2         ww2l2v_13TeV_sr_2j_B2         ww2l2v_13TeV_sr_2j_B2         ww2l2v_13TeV_sr_2j_B2         ww2l2v_13TeV_sr_2j_B2         ww2l2v_13TeV_sr_2j_B2         ww2l2v_13TeV_sr_2j_B2         ww2l2v_13TeV_sr_2j_B2         ww2l2v_13TeV_sr_2j_B2         ww2l2v_13TeV_sr_2j_B2         ww2l2v_13TeV_sr_2j_B2         ww2l2v_13TeV_sr_2j_B2         ww2l2v_13TeV_sr_2j_B2         ww2l2v_13TeV_sr_2j_B2         ww2l2v_13TeV_sr_2j_B2         ww2l2v_13TeV_sr_2j_B2         ww2l2v_13TeV_sr_2j_B2         ww2l2v_13TeV_sr_2j_B2         
process                                                                         ggWW_B4                       ggWW_B5                       ggWW_B2                       ggWW_B3                       ggWW_B0                       ggWW_B1                       ggWW_B8                       WW_B9                         WW_B4                         WW_B5                         WW_B2                         WW_B3                         WW_B1                         DY                            Fake_em                       WZ                            VVV                           top                           Fake_me                       Higgs                         ZZ                            ggWW_nonfid                   Vg                            WW_nonfid                     
process                                                                         -3                            -4                            -5                            -6                            -7                            -8                            -9                            -12                           -15                           -16                           -17                           -18                           -19                           2                             3                             4                             5                             6                             7                             8                             9                             10                            11                            12                            
rate                                                                            0.0079                        0.0016                        0.6540                        0.0906                        0.0024                        0.0626                        0.0007                        0.0640                        0.1917                        0.0886                        8.6200                        1.2015                        1.6116                        2.9542                        5.5008                        1.9274                        0.5394                        165.7813                      2.0117                        0.8614                        0.0586                        0.1530                        0.1066                        3.3481                        
----------------------------------------------------------------------------------------------------
lumi_13TeV_2016                                             lnN                 1.010                         1.010                         1.010                         1.010                         1.010                         1.010                         1.010                         1.010                         1.010                         1.010                         1.010                         1.010                         1.010                         1.010                         -                             1.010                         1.010                         -                             -                             1.010                         1.010                         1.010                         1.010                         1.010                         
lumi_13TeV_correlated                                       lnN                 1.006                         1.006                         1.006                         1.006                         1.006                         1.006                         1.006                         1.006                         1.006                         1.006                         1.006                         1.006                         1.006                         1.006                         -                             1.006                         1.006                         -                             -                             1.006                         1.006                         1.006                         1.006                         1.006                         
CMS_fake_syst_em                                            lnN                 -                             -                             -                             -                             -                             -                             -                             -                             -                             -                             -                             -                             -                             -                             1.3                           -                             -                             -                             -                             -                             -                             -                             -                             -                             
CMS_fake_syst_me                                            lnN                 -                             -                             -                             -                             -                             -                             -                             -                             -                             -                             -                             -                             -                             -                             -                             -                             -                             -                             1.3                           -                             -                             -                             -                             -                             
CMS_fake_e_2016                                             shape               -                             -                             -                             -                             -                             -                             -                             -                             -                             -                             -                             -                             -                             -                             1.000                         -                             -                             -                             1.000                         -                             -                             -                             -                             -                             
CMS_fake_stat_e_2016                                        shape               -                             -                             -                             -                             -                             -                             -                             -                             -                             -                             -                             -                             -                             -                             1.000                         -                             -                             -                             1.000                         -                             -                             -                             -                             -                             
CMS_fake_m_2016                                             shape               -                             -                             -                             -                             -                             -                             -                             -                             -                             -                             -                             -                             -                             -                             1.000                         -                             -                             -                             1.000                         -                             -                             -                             -                             -                             
CMS_fake_stat_m_2016                                        shape               -                             -                             -                             -                             -                             -                             -                             -                             -                             -                             -                             -                             -                             -                             1.000                         -                             -                             -                             1.000                         -                             -                             -                             -                             -                             
CMS_btag_lf                                                 shape               1.000                         1.000                         1.000                         1.000                         1.000                         1.000                         1.000                         1.000                         1.000                         1.000                         1.000                         1.000                         1.000                         1.000                         -                             1.000                         1.000                         1.000                         -                             1.000                         1.000                         1.000                         1.000                         1.000                         
CMS_btag_hf                                                 shape               1.000                         1.000                         1.000                         1.000                         1.000                         1.000                         1.000                         1.000                         1.000                         1.000                         1.000                         1.000                         1.000                         1.000                         -                             1.000                         1.000                         1.000                         -                             1.000                         1.000                         1.000                         1.000                         1.000                         
CMS_btag_hfstats1_2016                                      shape               1.000                         1.000                         1.000                         1.000                         1.000                         1.000                         1.000                         1.000                         1.000                         1.000                         1.000                         1.000                         1.000                         1.000                         -                             1.000                         1.000                         1.000                         -                             1.000                         1.000                         1.000                         1.000                         1.000                         
CMS_btag_hfstats2_2016                                      shape               1.000                         1.000                         1.000                         1.000                         1.000                         1.000                         1.000                         1.000                         1.000                         1.000                         1.000                         1.000                         1.000                         1.000                         -                             1.000                         1.000                         1.000                         -                             1.000                         1.000                         1.000                         1.000                         1.000                         
CMS_btag_lfstats1_2016                                      shape               1.000                         1.000                         1.000                         1.000                         1.000                         1.000                         1.000                         1.000                         1.000                         1.000                         1.000                         1.000                         1.000                         1.000                         -                             1.000                         1.000                         1.000                         -                             1.000                         1.000                         1.000                         1.000                         1.000                         
CMS_btag_lfstats2_2016                                      shape               1.000                         1.000                         1.000                         1.000                         1.000                         1.000                         1.000                         1.000                         1.000                         1.000                         1.000                         1.000                         1.000                         1.000                         -                             1.000                         1.000                         1.000                         -                             1.000                         1.000                         1.000                         1.000                         1.000                         
CMS_btag_cferr1                                             shape               1.000                         1.000                         1.000                         1.000                         1.000                         1.000                         1.000                         1.000                         1.000                         1.000                         1.000                         1.000                         1.000                         1.000                         -                             1.000                         1.000                         1.000                         -                             1.000                         1.000                         1.000                         1.000                         1.000                         
CMS_btag_cferr2                                             shape               1.000                         1.000                         1.000                         1.000                         1.000                         1.000                         1.000                         1.000                         1.000                         1.000                         1.000                         1.000                         1.000                         1.000                         -                             1.000                         1.000                         1.000                         -                             1.000                         1.000                         1.000                         1.000                         1.000                         
CMS_eff_hwwtrigger_2016                                     shape               1.000                         1.000                         1.000                         1.000                         1.000                         1.000                         1.000                         1.000                         1.000                         1.000                         1.000                         1.000                         1.000                         1.000                         -                             1.000                         1.000                         1.000                         -                             1.000                         1.000                         1.000                         1.000                         1.000                         
CMS_eff_prefiring_2016                                      shape               1.000                         1.000                         1.000                         1.000                         1.000                         1.000                         1.000                         1.000                         1.000                         1.000                         1.000                         1.000                         1.000                         1.000                         -                             1.000                         1.000                         1.000                         -                             1.000                         1.000                         1.000                         1.000                         1.000                         
CMS_eff_e_2016                                              shape               1.000                         1.000                         1.000                         1.000                         1.000                         1.000                         1.000                         1.000                         1.000                         1.000                         1.000                         1.000                         1.000                         1.000                         -                             1.000                         1.000                         1.000                         -                             1.000                         1.000                         1.000                         1.000                         1.000                         
CMS_scale_e_2016                                            shape               1.000                         1.000                         1.000                         1.000                         1.000                         1.000                         1.000                         1.000                         1.000                         1.000                         1.000                         1.000                         1.000                         1.000                         -                             1.000                         1.000                         1.000                         -                             1.000                         1.000                         1.000                         1.000                         1.000                         
CMS_eff_m_2016                                              shape               1.000                         1.000                         1.000                         1.000                         1.000                         1.000                         1.000                         1.000                         1.000                         1.000                         1.000                         1.000                         1.000                         1.000                         -                             1.000                         1.000                         1.000                         -                             1.000                         1.000                         1.000                         1.000                         1.000                         
CMS_scale_m_2016                                            shape               1.000                         1.000                         1.000                         1.000                         1.000                         1.000                         1.000                         1.000                         1.000                         1.000                         1.000                         1.000                         1.000                         1.000                         -                             1.000                         1.000                         1.000                         -                             1.000                         1.000                         1.000                         1.000                         1.000                         
CMS_scale_JESAbsolute                                       shape               1.000                         1.000                         1.000                         1.000                         1.000                         1.000                         1.000                         1.000                         1.000                         1.000                         1.000                         1.000                         1.000                         1.000                         -                             1.000                         1.000                         1.000                         -                             1.000                         1.000                         1.000                         1.000                         1.000                         
CMS_scale_JESAbsolute_2016                                  shape               1.000                         1.000                         1.000                         1.000                         1.000                         1.000                         1.000                         1.000                         1.000                         1.000                         1.000                         1.000                         1.000                         1.000                         -                             1.000                         1.000                         1.000                         -                             1.000                         1.000                         1.000                         1.000                         1.000                         
CMS_scale_JESBBEC1                                          shape               1.000                         1.000                         1.000                         1.000                         1.000                         1.000                         1.000                         1.000                         1.000                         1.000                         1.000                         1.000                         1.000                         1.000                         -                             1.000                         1.000                         1.000                         -                             1.000                         1.000                         1.000                         1.000                         1.000                         
CMS_scale_JESBBEC1_2016                                     shape               1.000                         1.000                         1.000                         1.000                         1.000                         1.000                         1.000                         1.000                         1.000                         1.000                         1.000                         1.000                         1.000                         1.000                         -                             1.000                         1.000                         1.000                         -                             1.000                         1.000                         1.000                         1.000                         1.000                         
CMS_scale_JESEC2                                            shape               1.000                         1.000                         1.000                         1.000                         1.000                         1.000                         1.000                         1.000                         1.000                         1.000                         1.000                         1.000                         1.000                         1.000                         -                             1.000                         1.000                         1.000                         -                             1.000                         1.000                         1.000                         1.000                         1.000                         
CMS_scale_JESEC2_2016                                       shape               1.000                         1.000                         1.000                         1.000                         1.000                         1.000                         1.000                         1.000                         1.000                         1.000                         1.000                         1.000                         1.000                         1.000                         -                             1.000                         1.000                         1.000                         -                             1.000                         1.000                         1.000                         1.000                         1.000                         
CMS_scale_JESFlavorQCD                                      shape               1.000                         1.000                         1.000                         1.000                         1.000                         1.000                         1.000                         1.000                         1.000                         1.000                         1.000                         1.000                         1.000                         1.000                         -                             1.000                         1.000                         1.000                         -                             1.000                         1.000                         1.000                         1.000                         1.000                         
CMS_scale_JESHF                                             shape               1.000                         1.000                         1.000                         1.000                         1.000                         1.000                         1.000                         1.000                         1.000                         1.000                         1.000                         1.000                         1.000                         1.000                         -                             1.000                         1.000                         1.000                         -                             1.000                         1.000                         1.000                         1.000                         1.000                         
CMS_scale_JESHF_2016                                        shape               1.000                         1.000                         1.000                         1.000                         1.000                         1.000                         1.000                         1.000                         1.000                         1.000                         1.000                         1.000                         1.000                         1.000                         -                             1.000                         1.000                         1.000                         -                             1.000                         1.000                         1.000                         1.000                         1.000                         
CMS_scale_JESRelativeBal                                    shape               1.000                         1.000                         1.000                         1.000                         1.000                         1.000                         1.000                         1.000                         1.000                         1.000                         1.000                         1.000                         1.000                         1.000                         -                             1.000                         1.000                         1.000                         -                             1.000                         1.000                         1.000                         1.000                         1.000                         
CMS_scale_JESRelativeSample_2016                            shape               1.000                         1.000                         1.000                         1.000                         1.000                         1.000                         1.000                         1.000                         1.000                         1.000                         1.000                         1.000                         1.000                         1.000                         -                             1.000                         1.000                         1.000                         -                             1.000                         1.000                         1.000                         1.000                         1.000                         
CMS_res_j_2016                                              shape               1.000                         1.000                         1.000                         1.000                         1.000                         1.000                         1.000                         1.000                         1.000                         1.000                         1.000                         1.000                         1.000                         1.000                         -                             1.000                         1.000                         1.000                         -                             1.000                         1.000                         1.000                         1.000                         1.000                         
CMS_scale_met_2016                                          shape               1.000                         1.000                         1.000                         1.000                         1.000                         1.000                         1.000                         1.000                         1.000                         1.000                         1.000                         1.000                         1.000                         1.000                         -                             1.000                         1.000                         1.000                         -                             1.000                         1.000                         1.000                         1.000                         1.000                         
CMS_PUID_2016                                               shape               1.000                         1.000                         1.000                         1.000                         1.000                         1.000                         1.000                         1.000                         1.000                         1.000                         1.000                         1.000                         1.000                         1.000                         -                             1.000                         1.000                         1.000                         -                             1.000                         1.000                         1.000                         1.000                         1.000                         
CMS_PU_2016                                                 shape               1.000                         1.000                         1.000                         1.000                         1.000                         1.000                         1.000                         1.000                         1.000                         1.000                         1.000                         1.000                         1.000                         1.000                         -                             1.000                         1.000                         1.000                         -                             1.000                         1.000                         1.000                         1.000                         1.000                         
PS_ISR                                                      shape               -                             -                             -                             -                             -                             -                             -                             -                             -                             -                             -                             -                             -                             1.000                         -                             1.000                         1.000                         1.000                         -                             1.000                         1.000                         -                             1.000                         -                             
PS_ISR                                                      shape               1.000                         1.000                         1.000                         1.000                         1.000                         1.000                         1.000                         1.000                         1.000                         1.000                         1.000                         1.000                         1.000                         -                             -                             -                             -                             -                             -                             -                             -                             1.000                         -                             1.000                         
PS_FSR                                                      shape               -                             -                             -                             -                             -                             -                             -                             -                             -                             -                             -                             -                             -                             1.000                         -                             1.000                         1.000                         1.000                         -                             1.000                         1.000                         -                             1.000                         -                             
PS_FSR                                                      shape               1.000                         1.000                         1.000                         1.000                         1.000                         1.000                         1.000                         1.000                         1.000                         1.000                         1.000                         1.000                         1.000                         -                             -                             -                             -                             -                             -                             -                             -                             1.000                         -                             1.000                         
UE_CP5                                                      lnN                 -                             -                             -                             -                             -                             -                             -                             -                             -                             -                             -                             -                             -                             1.015                         -                             1.015                         1.015                         1.015                         -                             1.015                         1.015                         -                             1.015                         -                             
singleTopToTTbar                                            shape               -                             -                             -                             -                             -                             -                             -                             -                             -                             -                             -                             -                             -                             -                             -                             -                             -                             1.000                         -                             -                             -                             -                             -                             -                             
CMS_hww_WgStarScale                                         lnN                 -                             -                             -                             -                             -                             -                             -                             -                             -                             -                             -                             -                             -                             -                             -                             -                             -                             -                             -                             -                             -                             -                             1.050                         -                             
pdf_Higgs                                                   lnN                 -                             -                             -                             -                             -                             -                             -                             -                             -                             -                             -                             -                             -                             -                             -                             -                             -                             -                             -                             1.027                         -                             -                             -                             -                             
pdf_qqbar                                                   lnN                 -                             -                             -                             -                             -                             -                             -                             -                             -                             -                             -                             -                             -                             -                             -                             1.04                          -                             -                             -                             -                             1.04                          -                             1.04                          -                             
pdf_Higgs_ACCEPT                                            lnN                 -                             -                             -                             -                             -                             -                             -                             -                             -                             -                             -                             -                             -                             -                             -                             -                             -                             -                             -                             1.004                         -                             -                             -                             -                             
pdf_qqbar_ACCEPT                                            lnN                 -                             -                             -                             -                             -                             -                             -                             -                             -                             -                             -                             -                             -                             -                             -                             1.001                         -                             -                             -                             -                             1.001                         -                             -                             -                             
CMS_hww_pdf_WW                                              shape               -                             -                             -                             -                             -                             -                             -                             1.000                         1.000                         1.000                         1.000                         1.000                         1.000                         -                             -                             -                             -                             -                             -                             -                             -                             -                             -                             1.000                         
QCDscale_V                                                  shape               -                             -                             -                             -                             -                             -                             -                             -                             -                             -                             -                             -                             -                             1.000                         -                             -                             -                             -                             -                             -                             -                             -                             -                             -                             
QCDscale_VV                                                 shape               -                             -                             -                             -                             -                             -                             -                             -                             -                             -                             -                             -                             -                             -                             -                             1.000                         -                             -                             -                             -                             1.000                         -                             1.000                         -                             
QCDscale_WW                                                 shape               -                             -                             -                             -                             -                             -                             -                             1.000                         1.000                         1.000                         1.000                         1.000                         1.000                         -                             -                             -                             -                             -                             -                             -                             -                             -                             -                             1.000                         
QCDscale_top_2j                                             shape               -                             -                             -                             -                             -                             -                             -                             -                             -                             -                             -                             -                             -                             -                             -                             -                             -                             1.000                         -                             -                             -                             -                             -                             -                             
CMS_hww_WWresum                                             shape               -                             -                             -                             -                             -                             -                             -                             1.000                         1.000                         1.000                         1.000                         1.000                         1.000                         -                             -                             -                             -                             -                             -                             -                             -                             -                             -                             1.000                         
CMS_hww_WWqscale                                            shape               -                             -                             -                             -                             -                             -                             -                             1.000                         1.000                         1.000                         1.000                         1.000                         1.000                         -                             -                             -                             -                             -                             -                             -                             -                             -                             -                             1.000                         
QCDscale_Higgs                                              lnN                 -                             -                             -                             -                             -                             -                             -                             -                             -                             -                             -                             -                             -                             -                             -                             -                             -                             -                             -                             0.949/1.041                   -                             -                             -                             -                             
QCDscale_WWewk                                              lnN                 -                             -                             -                             -                             -                             -                             -                             -                             -                             -                             -                             -                             -                             -                             -                             -                             -                             -                             -                             -                             -                             -                             -                             -                             
QCDscale_Higgs_ACCEPT                                       lnN                 -                             -                             -                             -                             -                             -                             -                             -                             -                             -                             -                             -                             -                             -                             -                             -                             -                             -                             -                             1.010                         -                             -                             -                             -                             
* autoMCStats 10  0
CMS_hww_Topnorm_2j                                          rateParam                ww2l2v_13TeV_sr_2j_B2         top                      1.0000                        
----------------------------------------------------------------------------------------------------

